(kicad_sch
	(version 20231120)
	(generator "eeschema")
	(generator_version "8.0")
	(uuid "2885994b-2fd3-4618-a25f-f1974be1c28f")
	(paper "USLetter")
	(title_block
		(title "JK Headphone Amp")
		(date "2020-09-06")
		(rev "4")
		(company "Headphone Amp with Treb Cut")
	)
	(lib_symbols
		(symbol "Amplifier_Operational:OPA2134"
			(pin_names
				(offset 0.127)
			)
			(exclude_from_sim no)
			(in_bom yes)
			(on_board yes)
			(property "Reference" "U"
				(at 0 5.08 0)
				(effects
					(font
						(size 1.27 1.27)
					)
					(justify left)
				)
			)
			(property "Value" "OPA2134"
				(at 0 -5.08 0)
				(effects
					(font
						(size 1.27 1.27)
					)
					(justify left)
				)
			)
			(property "Footprint" ""
				(at 0 0 0)
				(effects
					(font
						(size 1.27 1.27)
					)
					(hide yes)
				)
			)
			(property "Datasheet" "http://www.ti.com/lit/ds/symlink/opa134.pdf"
				(at 0 0 0)
				(effects
					(font
						(size 1.27 1.27)
					)
					(hide yes)
				)
			)
			(property "Description" "Dual SoundPlus High Performance Audio Operational Amplifiers, DIP-8/SOIC-8"
				(at 0 0 0)
				(effects
					(font
						(size 1.27 1.27)
					)
					(hide yes)
				)
			)
			(property "ki_locked" ""
				(at 0 0 0)
				(effects
					(font
						(size 1.27 1.27)
					)
				)
			)
			(property "ki_keywords" "dual opamp"
				(at 0 0 0)
				(effects
					(font
						(size 1.27 1.27)
					)
					(hide yes)
				)
			)
			(property "ki_fp_filters" "SOIC*3.9x4.9mm*P1.27mm* DIP*W7.62mm* TO*99* OnSemi*Micro8* TSSOP*3x3mm*P0.65mm* TSSOP*4.4x3mm*P0.65mm* MSOP*3x3mm*P0.65mm* SSOP*3.9x4.9mm*P0.635mm* LFCSP*2x2mm*P0.5mm* *SIP* SOIC*5.3x6.2mm*P1.27mm*"
				(at 0 0 0)
				(effects
					(font
						(size 1.27 1.27)
					)
					(hide yes)
				)
			)
			(symbol "OPA2134_1_1"
				(polyline
					(pts
						(xy -5.08 5.08) (xy 5.08 0) (xy -5.08 -5.08) (xy -5.08 5.08)
					)
					(stroke
						(width 0.254)
						(type default)
					)
					(fill
						(type background)
					)
				)
				(pin output line
					(at 7.62 0 180)
					(length 2.54)
					(name "~"
						(effects
							(font
								(size 1.27 1.27)
							)
						)
					)
					(number "1"
						(effects
							(font
								(size 1.27 1.27)
							)
						)
					)
				)
				(pin input line
					(at -7.62 -2.54 0)
					(length 2.54)
					(name "-"
						(effects
							(font
								(size 1.27 1.27)
							)
						)
					)
					(number "2"
						(effects
							(font
								(size 1.27 1.27)
							)
						)
					)
				)
				(pin input line
					(at -7.62 2.54 0)
					(length 2.54)
					(name "+"
						(effects
							(font
								(size 1.27 1.27)
							)
						)
					)
					(number "3"
						(effects
							(font
								(size 1.27 1.27)
							)
						)
					)
				)
			)
			(symbol "OPA2134_2_1"
				(polyline
					(pts
						(xy -5.08 5.08) (xy 5.08 0) (xy -5.08 -5.08) (xy -5.08 5.08)
					)
					(stroke
						(width 0.254)
						(type default)
					)
					(fill
						(type background)
					)
				)
				(pin input line
					(at -7.62 2.54 0)
					(length 2.54)
					(name "+"
						(effects
							(font
								(size 1.27 1.27)
							)
						)
					)
					(number "5"
						(effects
							(font
								(size 1.27 1.27)
							)
						)
					)
				)
				(pin input line
					(at -7.62 -2.54 0)
					(length 2.54)
					(name "-"
						(effects
							(font
								(size 1.27 1.27)
							)
						)
					)
					(number "6"
						(effects
							(font
								(size 1.27 1.27)
							)
						)
					)
				)
				(pin output line
					(at 7.62 0 180)
					(length 2.54)
					(name "~"
						(effects
							(font
								(size 1.27 1.27)
							)
						)
					)
					(number "7"
						(effects
							(font
								(size 1.27 1.27)
							)
						)
					)
				)
			)
			(symbol "OPA2134_3_1"
				(pin power_in line
					(at -2.54 -7.62 90)
					(length 3.81)
					(name "V-"
						(effects
							(font
								(size 1.27 1.27)
							)
						)
					)
					(number "4"
						(effects
							(font
								(size 1.27 1.27)
							)
						)
					)
				)
				(pin power_in line
					(at -2.54 7.62 270)
					(length 3.81)
					(name "V+"
						(effects
							(font
								(size 1.27 1.27)
							)
						)
					)
					(number "8"
						(effects
							(font
								(size 1.27 1.27)
							)
						)
					)
				)
			)
		)
		(symbol "Connector:Screw_Terminal_01x02"
			(pin_names
				(offset 1.016) hide)
			(exclude_from_sim no)
			(in_bom yes)
			(on_board yes)
			(property "Reference" "J"
				(at 0 2.54 0)
				(effects
					(font
						(size 1.27 1.27)
					)
				)
			)
			(property "Value" "Screw_Terminal_01x02"
				(at 0 -5.08 0)
				(effects
					(font
						(size 1.27 1.27)
					)
				)
			)
			(property "Footprint" ""
				(at 0 0 0)
				(effects
					(font
						(size 1.27 1.27)
					)
					(hide yes)
				)
			)
			(property "Datasheet" "~"
				(at 0 0 0)
				(effects
					(font
						(size 1.27 1.27)
					)
					(hide yes)
				)
			)
			(property "Description" "Generic screw terminal, single row, 01x02, script generated (kicad-library-utils/schlib/autogen/connector/)"
				(at 0 0 0)
				(effects
					(font
						(size 1.27 1.27)
					)
					(hide yes)
				)
			)
			(property "ki_keywords" "screw terminal"
				(at 0 0 0)
				(effects
					(font
						(size 1.27 1.27)
					)
					(hide yes)
				)
			)
			(property "ki_fp_filters" "TerminalBlock*:*"
				(at 0 0 0)
				(effects
					(font
						(size 1.27 1.27)
					)
					(hide yes)
				)
			)
			(symbol "Screw_Terminal_01x02_1_1"
				(rectangle
					(start -1.27 1.27)
					(end 1.27 -3.81)
					(stroke
						(width 0.254)
						(type default)
					)
					(fill
						(type background)
					)
				)
				(circle
					(center 0 -2.54)
					(radius 0.635)
					(stroke
						(width 0.1524)
						(type default)
					)
					(fill
						(type none)
					)
				)
				(polyline
					(pts
						(xy -0.5334 -2.2098) (xy 0.3302 -3.048)
					)
					(stroke
						(width 0.1524)
						(type default)
					)
					(fill
						(type none)
					)
				)
				(polyline
					(pts
						(xy -0.5334 0.3302) (xy 0.3302 -0.508)
					)
					(stroke
						(width 0.1524)
						(type default)
					)
					(fill
						(type none)
					)
				)
				(polyline
					(pts
						(xy -0.3556 -2.032) (xy 0.508 -2.8702)
					)
					(stroke
						(width 0.1524)
						(type default)
					)
					(fill
						(type none)
					)
				)
				(polyline
					(pts
						(xy -0.3556 0.508) (xy 0.508 -0.3302)
					)
					(stroke
						(width 0.1524)
						(type default)
					)
					(fill
						(type none)
					)
				)
				(circle
					(center 0 0)
					(radius 0.635)
					(stroke
						(width 0.1524)
						(type default)
					)
					(fill
						(type none)
					)
				)
				(pin passive line
					(at -5.08 0 0)
					(length 3.81)
					(name "Pin_1"
						(effects
							(font
								(size 1.27 1.27)
							)
						)
					)
					(number "1"
						(effects
							(font
								(size 1.27 1.27)
							)
						)
					)
				)
				(pin passive line
					(at -5.08 -2.54 0)
					(length 3.81)
					(name "Pin_2"
						(effects
							(font
								(size 1.27 1.27)
							)
						)
					)
					(number "2"
						(effects
							(font
								(size 1.27 1.27)
							)
						)
					)
				)
			)
		)
		(symbol "Device:C"
			(pin_numbers hide)
			(pin_names
				(offset 0.254)
			)
			(exclude_from_sim no)
			(in_bom yes)
			(on_board yes)
			(property "Reference" "C"
				(at 0.635 2.54 0)
				(effects
					(font
						(size 1.27 1.27)
					)
					(justify left)
				)
			)
			(property "Value" "C"
				(at 0.635 -2.54 0)
				(effects
					(font
						(size 1.27 1.27)
					)
					(justify left)
				)
			)
			(property "Footprint" ""
				(at 0.9652 -3.81 0)
				(effects
					(font
						(size 1.27 1.27)
					)
					(hide yes)
				)
			)
			(property "Datasheet" "~"
				(at 0 0 0)
				(effects
					(font
						(size 1.27 1.27)
					)
					(hide yes)
				)
			)
			(property "Description" "Unpolarized capacitor"
				(at 0 0 0)
				(effects
					(font
						(size 1.27 1.27)
					)
					(hide yes)
				)
			)
			(property "ki_keywords" "cap capacitor"
				(at 0 0 0)
				(effects
					(font
						(size 1.27 1.27)
					)
					(hide yes)
				)
			)
			(property "ki_fp_filters" "C_*"
				(at 0 0 0)
				(effects
					(font
						(size 1.27 1.27)
					)
					(hide yes)
				)
			)
			(symbol "C_0_1"
				(polyline
					(pts
						(xy -2.032 -0.762) (xy 2.032 -0.762)
					)
					(stroke
						(width 0.508)
						(type default)
					)
					(fill
						(type none)
					)
				)
				(polyline
					(pts
						(xy -2.032 0.762) (xy 2.032 0.762)
					)
					(stroke
						(width 0.508)
						(type default)
					)
					(fill
						(type none)
					)
				)
			)
			(symbol "C_1_1"
				(pin passive line
					(at 0 3.81 270)
					(length 2.794)
					(name "~"
						(effects
							(font
								(size 1.27 1.27)
							)
						)
					)
					(number "1"
						(effects
							(font
								(size 1.27 1.27)
							)
						)
					)
				)
				(pin passive line
					(at 0 -3.81 90)
					(length 2.794)
					(name "~"
						(effects
							(font
								(size 1.27 1.27)
							)
						)
					)
					(number "2"
						(effects
							(font
								(size 1.27 1.27)
							)
						)
					)
				)
			)
		)
		(symbol "Device:R"
			(pin_numbers hide)
			(pin_names
				(offset 0)
			)
			(exclude_from_sim no)
			(in_bom yes)
			(on_board yes)
			(property "Reference" "R"
				(at 2.032 0 90)
				(effects
					(font
						(size 1.27 1.27)
					)
				)
			)
			(property "Value" "R"
				(at 0 0 90)
				(effects
					(font
						(size 1.27 1.27)
					)
				)
			)
			(property "Footprint" ""
				(at -1.778 0 90)
				(effects
					(font
						(size 1.27 1.27)
					)
					(hide yes)
				)
			)
			(property "Datasheet" "~"
				(at 0 0 0)
				(effects
					(font
						(size 1.27 1.27)
					)
					(hide yes)
				)
			)
			(property "Description" "Resistor"
				(at 0 0 0)
				(effects
					(font
						(size 1.27 1.27)
					)
					(hide yes)
				)
			)
			(property "ki_keywords" "R res resistor"
				(at 0 0 0)
				(effects
					(font
						(size 1.27 1.27)
					)
					(hide yes)
				)
			)
			(property "ki_fp_filters" "R_*"
				(at 0 0 0)
				(effects
					(font
						(size 1.27 1.27)
					)
					(hide yes)
				)
			)
			(symbol "R_0_1"
				(rectangle
					(start -1.016 -2.54)
					(end 1.016 2.54)
					(stroke
						(width 0.254)
						(type default)
					)
					(fill
						(type none)
					)
				)
			)
			(symbol "R_1_1"
				(pin passive line
					(at 0 3.81 270)
					(length 1.27)
					(name "~"
						(effects
							(font
								(size 1.27 1.27)
							)
						)
					)
					(number "1"
						(effects
							(font
								(size 1.27 1.27)
							)
						)
					)
				)
				(pin passive line
					(at 0 -3.81 90)
					(length 1.27)
					(name "~"
						(effects
							(font
								(size 1.27 1.27)
							)
						)
					)
					(number "2"
						(effects
							(font
								(size 1.27 1.27)
							)
						)
					)
				)
			)
		)
		(symbol "JKHA-rescue:AudioJack3-Connector"
			(exclude_from_sim no)
			(in_bom yes)
			(on_board yes)
			(property "Reference" "J"
				(at 0 8.89 0)
				(effects
					(font
						(size 1.27 1.27)
					)
				)
			)
			(property "Value" "Connector_AudioJack3"
				(at 0 6.35 0)
				(effects
					(font
						(size 1.27 1.27)
					)
				)
			)
			(property "Footprint" ""
				(at 0 0 0)
				(effects
					(font
						(size 1.27 1.27)
					)
					(hide yes)
				)
			)
			(property "Datasheet" ""
				(at 0 0 0)
				(effects
					(font
						(size 1.27 1.27)
					)
					(hide yes)
				)
			)
			(property "Description" ""
				(at 0 0 0)
				(effects
					(font
						(size 1.27 1.27)
					)
					(hide yes)
				)
			)
			(property "ki_fp_filters" "Jack*"
				(at 0 0 0)
				(effects
					(font
						(size 1.27 1.27)
					)
					(hide yes)
				)
			)
			(symbol "AudioJack3-Connector_0_1"
				(rectangle
					(start -5.08 -5.08)
					(end -6.35 -2.54)
					(stroke
						(width 0.254)
						(type solid)
					)
					(fill
						(type outline)
					)
				)
				(polyline
					(pts
						(xy 0 -2.54) (xy 0.635 -3.175) (xy 1.27 -2.54) (xy 2.54 -2.54)
					)
					(stroke
						(width 0.254)
						(type solid)
					)
					(fill
						(type none)
					)
				)
				(polyline
					(pts
						(xy -1.905 -2.54) (xy -1.27 -3.175) (xy -0.635 -2.54) (xy -0.635 0) (xy 2.54 0)
					)
					(stroke
						(width 0.254)
						(type solid)
					)
					(fill
						(type none)
					)
				)
				(polyline
					(pts
						(xy 2.54 2.54) (xy -2.54 2.54) (xy -2.54 -2.54) (xy -3.175 -3.175) (xy -3.81 -2.54)
					)
					(stroke
						(width 0.254)
						(type solid)
					)
					(fill
						(type none)
					)
				)
				(rectangle
					(start 2.54 3.81)
					(end -5.08 -5.08)
					(stroke
						(width 0.254)
						(type solid)
					)
					(fill
						(type background)
					)
				)
			)
			(symbol "AudioJack3-Connector_1_1"
				(pin passive line
					(at 5.08 0 180)
					(length 2.54)
					(name "~"
						(effects
							(font
								(size 1.27 1.27)
							)
						)
					)
					(number "R"
						(effects
							(font
								(size 1.27 1.27)
							)
						)
					)
				)
				(pin passive line
					(at 5.08 2.54 180)
					(length 2.54)
					(name "~"
						(effects
							(font
								(size 1.27 1.27)
							)
						)
					)
					(number "S"
						(effects
							(font
								(size 1.27 1.27)
							)
						)
					)
				)
				(pin passive line
					(at 5.08 -2.54 180)
					(length 2.54)
					(name "~"
						(effects
							(font
								(size 1.27 1.27)
							)
						)
					)
					(number "T"
						(effects
							(font
								(size 1.27 1.27)
							)
						)
					)
				)
			)
		)
		(symbol "JKHA-rescue:CP1-Device"
			(pin_numbers hide)
			(pin_names
				(offset 0.254) hide)
			(exclude_from_sim no)
			(in_bom yes)
			(on_board yes)
			(property "Reference" "C"
				(at 0.635 2.54 0)
				(effects
					(font
						(size 1.27 1.27)
					)
					(justify left)
				)
			)
			(property "Value" "Device_CP1"
				(at 0.635 -2.54 0)
				(effects
					(font
						(size 1.27 1.27)
					)
					(justify left)
				)
			)
			(property "Footprint" ""
				(at 0 0 0)
				(effects
					(font
						(size 1.27 1.27)
					)
					(hide yes)
				)
			)
			(property "Datasheet" ""
				(at 0 0 0)
				(effects
					(font
						(size 1.27 1.27)
					)
					(hide yes)
				)
			)
			(property "Description" ""
				(at 0 0 0)
				(effects
					(font
						(size 1.27 1.27)
					)
					(hide yes)
				)
			)
			(property "ki_fp_filters" "CP_*"
				(at 0 0 0)
				(effects
					(font
						(size 1.27 1.27)
					)
					(hide yes)
				)
			)
			(symbol "CP1-Device_0_1"
				(polyline
					(pts
						(xy -2.032 0.762) (xy 2.032 0.762)
					)
					(stroke
						(width 0.508)
						(type solid)
					)
					(fill
						(type none)
					)
				)
				(polyline
					(pts
						(xy -1.778 2.286) (xy -0.762 2.286)
					)
					(stroke
						(width 0)
						(type solid)
					)
					(fill
						(type none)
					)
				)
				(polyline
					(pts
						(xy -1.27 1.778) (xy -1.27 2.794)
					)
					(stroke
						(width 0)
						(type solid)
					)
					(fill
						(type none)
					)
				)
				(arc
					(start 2.032 -1.27)
					(mid 0 -0.5572)
					(end -2.032 -1.27)
					(stroke
						(width 0.508)
						(type solid)
					)
					(fill
						(type none)
					)
				)
			)
			(symbol "CP1-Device_1_1"
				(pin passive line
					(at 0 3.81 270)
					(length 2.794)
					(name "~"
						(effects
							(font
								(size 1.27 1.27)
							)
						)
					)
					(number "1"
						(effects
							(font
								(size 1.27 1.27)
							)
						)
					)
				)
				(pin passive line
					(at 0 -3.81 90)
					(length 3.302)
					(name "~"
						(effects
							(font
								(size 1.27 1.27)
							)
						)
					)
					(number "2"
						(effects
							(font
								(size 1.27 1.27)
							)
						)
					)
				)
			)
		)
		(symbol "JKHA-rescue:GNDREF-power"
			(power)
			(pin_names
				(offset 0)
			)
			(exclude_from_sim no)
			(in_bom yes)
			(on_board yes)
			(property "Reference" "#PWR"
				(at 0 -6.35 0)
				(effects
					(font
						(size 1.27 1.27)
					)
					(hide yes)
				)
			)
			(property "Value" "power_GNDREF"
				(at 0 -3.81 0)
				(effects
					(font
						(size 1.27 1.27)
					)
				)
			)
			(property "Footprint" ""
				(at 0 0 0)
				(effects
					(font
						(size 1.27 1.27)
					)
					(hide yes)
				)
			)
			(property "Datasheet" ""
				(at 0 0 0)
				(effects
					(font
						(size 1.27 1.27)
					)
					(hide yes)
				)
			)
			(property "Description" ""
				(at 0 0 0)
				(effects
					(font
						(size 1.27 1.27)
					)
					(hide yes)
				)
			)
			(symbol "GNDREF-power_0_1"
				(polyline
					(pts
						(xy -0.635 -1.905) (xy 0.635 -1.905)
					)
					(stroke
						(width 0)
						(type solid)
					)
					(fill
						(type none)
					)
				)
				(polyline
					(pts
						(xy -0.127 -2.54) (xy 0.127 -2.54)
					)
					(stroke
						(width 0)
						(type solid)
					)
					(fill
						(type none)
					)
				)
				(polyline
					(pts
						(xy 0 -1.27) (xy 0 0)
					)
					(stroke
						(width 0)
						(type solid)
					)
					(fill
						(type none)
					)
				)
				(polyline
					(pts
						(xy 1.27 -1.27) (xy -1.27 -1.27)
					)
					(stroke
						(width 0)
						(type solid)
					)
					(fill
						(type none)
					)
				)
			)
			(symbol "GNDREF-power_1_1"
				(pin power_in line
					(at 0 0 270)
					(length 0) hide
					(name "GNDREF"
						(effects
							(font
								(size 1.27 1.27)
							)
						)
					)
					(number "1"
						(effects
							(font
								(size 1.27 1.27)
							)
						)
					)
				)
			)
		)
		(symbol "JKHA-rescue:R_POT_Dual_Separate-Device"
			(pin_names
				(offset 1.016) hide)
			(exclude_from_sim no)
			(in_bom yes)
			(on_board yes)
			(property "Reference" "RV"
				(at -4.445 0 90)
				(effects
					(font
						(size 1.27 1.27)
					)
				)
			)
			(property "Value" "Device_R_POT_Dual_Separate"
				(at -2.54 0 90)
				(effects
					(font
						(size 1.27 1.27)
					)
				)
			)
			(property "Footprint" ""
				(at 0 0 0)
				(effects
					(font
						(size 1.27 1.27)
					)
					(hide yes)
				)
			)
			(property "Datasheet" ""
				(at 0 0 0)
				(effects
					(font
						(size 1.27 1.27)
					)
					(hide yes)
				)
			)
			(property "Description" ""
				(at 0 0 0)
				(effects
					(font
						(size 1.27 1.27)
					)
					(hide yes)
				)
			)
			(property "ki_fp_filters" "Potentiometer*"
				(at 0 0 0)
				(effects
					(font
						(size 1.27 1.27)
					)
					(hide yes)
				)
			)
			(symbol "R_POT_Dual_Separate-Device_0_1"
				(polyline
					(pts
						(xy 2.54 0) (xy 1.524 0)
					)
					(stroke
						(width 0)
						(type solid)
					)
					(fill
						(type none)
					)
				)
				(polyline
					(pts
						(xy 1.143 0) (xy 2.286 0.508) (xy 2.286 -0.508) (xy 1.143 0)
					)
					(stroke
						(width 0)
						(type solid)
					)
					(fill
						(type outline)
					)
				)
				(rectangle
					(start 1.016 2.54)
					(end -1.016 -2.54)
					(stroke
						(width 0.254)
						(type solid)
					)
					(fill
						(type none)
					)
				)
			)
			(symbol "R_POT_Dual_Separate-Device_1_1"
				(pin passive line
					(at 0 3.81 270)
					(length 1.27)
					(name "1"
						(effects
							(font
								(size 1.27 1.27)
							)
						)
					)
					(number "1"
						(effects
							(font
								(size 1.27 1.27)
							)
						)
					)
				)
				(pin passive line
					(at 3.81 0 180)
					(length 1.27)
					(name "2"
						(effects
							(font
								(size 1.27 1.27)
							)
						)
					)
					(number "2"
						(effects
							(font
								(size 1.27 1.27)
							)
						)
					)
				)
				(pin passive line
					(at 0 -3.81 90)
					(length 1.27)
					(name "3"
						(effects
							(font
								(size 1.27 1.27)
							)
						)
					)
					(number "3"
						(effects
							(font
								(size 1.27 1.27)
							)
						)
					)
				)
			)
			(symbol "R_POT_Dual_Separate-Device_2_1"
				(pin passive line
					(at 0 3.81 270)
					(length 1.27)
					(name "4"
						(effects
							(font
								(size 1.27 1.27)
							)
						)
					)
					(number "4"
						(effects
							(font
								(size 1.27 1.27)
							)
						)
					)
				)
				(pin passive line
					(at 3.81 0 180)
					(length 1.27)
					(name "5"
						(effects
							(font
								(size 1.27 1.27)
							)
						)
					)
					(number "5"
						(effects
							(font
								(size 1.27 1.27)
							)
						)
					)
				)
				(pin passive line
					(at 0 -3.81 90)
					(length 1.27)
					(name "6"
						(effects
							(font
								(size 1.27 1.27)
							)
						)
					)
					(number "6"
						(effects
							(font
								(size 1.27 1.27)
							)
						)
					)
				)
			)
		)
		(symbol "JKHA-rescue:VCC-power"
			(power)
			(pin_names
				(offset 0)
			)
			(exclude_from_sim no)
			(in_bom yes)
			(on_board yes)
			(property "Reference" "#PWR"
				(at 0 -3.81 0)
				(effects
					(font
						(size 1.27 1.27)
					)
					(hide yes)
				)
			)
			(property "Value" "power_VCC"
				(at 0 3.81 0)
				(effects
					(font
						(size 1.27 1.27)
					)
				)
			)
			(property "Footprint" ""
				(at 0 0 0)
				(effects
					(font
						(size 1.27 1.27)
					)
					(hide yes)
				)
			)
			(property "Datasheet" ""
				(at 0 0 0)
				(effects
					(font
						(size 1.27 1.27)
					)
					(hide yes)
				)
			)
			(property "Description" ""
				(at 0 0 0)
				(effects
					(font
						(size 1.27 1.27)
					)
					(hide yes)
				)
			)
			(symbol "VCC-power_0_1"
				(polyline
					(pts
						(xy -0.762 1.27) (xy 0 2.54)
					)
					(stroke
						(width 0)
						(type solid)
					)
					(fill
						(type none)
					)
				)
				(polyline
					(pts
						(xy 0 0) (xy 0 2.54)
					)
					(stroke
						(width 0)
						(type solid)
					)
					(fill
						(type none)
					)
				)
				(polyline
					(pts
						(xy 0 2.54) (xy 0.762 1.27)
					)
					(stroke
						(width 0)
						(type solid)
					)
					(fill
						(type none)
					)
				)
			)
			(symbol "VCC-power_1_1"
				(pin power_in line
					(at 0 0 90)
					(length 0) hide
					(name "VCC"
						(effects
							(font
								(size 1.27 1.27)
							)
						)
					)
					(number "1"
						(effects
							(font
								(size 1.27 1.27)
							)
						)
					)
				)
			)
		)
		(symbol "JKHA-rescue:VEE-power"
			(power)
			(pin_names
				(offset 0)
			)
			(exclude_from_sim no)
			(in_bom yes)
			(on_board yes)
			(property "Reference" "#PWR"
				(at 0 -3.81 0)
				(effects
					(font
						(size 1.27 1.27)
					)
					(hide yes)
				)
			)
			(property "Value" "power_VEE"
				(at 0 3.81 0)
				(effects
					(font
						(size 1.27 1.27)
					)
				)
			)
			(property "Footprint" ""
				(at 0 0 0)
				(effects
					(font
						(size 1.27 1.27)
					)
					(hide yes)
				)
			)
			(property "Datasheet" ""
				(at 0 0 0)
				(effects
					(font
						(size 1.27 1.27)
					)
					(hide yes)
				)
			)
			(property "Description" ""
				(at 0 0 0)
				(effects
					(font
						(size 1.27 1.27)
					)
					(hide yes)
				)
			)
			(symbol "VEE-power_0_1"
				(polyline
					(pts
						(xy 0 0) (xy 0 2.54)
					)
					(stroke
						(width 0)
						(type solid)
					)
					(fill
						(type none)
					)
				)
				(polyline
					(pts
						(xy 0.762 1.27) (xy -0.762 1.27) (xy 0 2.54) (xy 0.762 1.27)
					)
					(stroke
						(width 0)
						(type solid)
					)
					(fill
						(type outline)
					)
				)
			)
			(symbol "VEE-power_1_1"
				(pin power_in line
					(at 0 0 90)
					(length 0) hide
					(name "VEE"
						(effects
							(font
								(size 1.27 1.27)
							)
						)
					)
					(number "1"
						(effects
							(font
								(size 1.27 1.27)
							)
						)
					)
				)
			)
		)
		(symbol "Mechanical:MountingHole"
			(pin_names
				(offset 1.016)
			)
			(exclude_from_sim yes)
			(in_bom no)
			(on_board yes)
			(property "Reference" "H"
				(at 0 5.08 0)
				(effects
					(font
						(size 1.27 1.27)
					)
				)
			)
			(property "Value" "MountingHole"
				(at 0 3.175 0)
				(effects
					(font
						(size 1.27 1.27)
					)
				)
			)
			(property "Footprint" ""
				(at 0 0 0)
				(effects
					(font
						(size 1.27 1.27)
					)
					(hide yes)
				)
			)
			(property "Datasheet" "~"
				(at 0 0 0)
				(effects
					(font
						(size 1.27 1.27)
					)
					(hide yes)
				)
			)
			(property "Description" "Mounting Hole without connection"
				(at 0 0 0)
				(effects
					(font
						(size 1.27 1.27)
					)
					(hide yes)
				)
			)
			(property "ki_keywords" "mounting hole"
				(at 0 0 0)
				(effects
					(font
						(size 1.27 1.27)
					)
					(hide yes)
				)
			)
			(property "ki_fp_filters" "MountingHole*"
				(at 0 0 0)
				(effects
					(font
						(size 1.27 1.27)
					)
					(hide yes)
				)
			)
			(symbol "MountingHole_0_1"
				(circle
					(center 0 0)
					(radius 1.27)
					(stroke
						(width 1.27)
						(type default)
					)
					(fill
						(type none)
					)
				)
			)
		)
		(symbol "Regulator_Linear:L7812"
			(pin_names
				(offset 0.254)
			)
			(exclude_from_sim no)
			(in_bom yes)
			(on_board yes)
			(property "Reference" "U"
				(at -3.81 3.175 0)
				(effects
					(font
						(size 1.27 1.27)
					)
				)
			)
			(property "Value" "L7812"
				(at 0 3.175 0)
				(effects
					(font
						(size 1.27 1.27)
					)
					(justify left)
				)
			)
			(property "Footprint" ""
				(at 0.635 -3.81 0)
				(effects
					(font
						(size 1.27 1.27)
						(italic yes)
					)
					(justify left)
					(hide yes)
				)
			)
			(property "Datasheet" "http://www.st.com/content/ccc/resource/technical/document/datasheet/41/4f/b3/b0/12/d4/47/88/CD00000444.pdf/files/CD00000444.pdf/jcr:content/translations/en.CD00000444.pdf"
				(at 0 -1.27 0)
				(effects
					(font
						(size 1.27 1.27)
					)
					(hide yes)
				)
			)
			(property "Description" "Positive 1.5A 35V Linear Regulator, Fixed Output 12V, TO-220/TO-263/TO-252"
				(at 0 0 0)
				(effects
					(font
						(size 1.27 1.27)
					)
					(hide yes)
				)
			)
			(property "ki_keywords" "Voltage Regulator 1.5A Positive"
				(at 0 0 0)
				(effects
					(font
						(size 1.27 1.27)
					)
					(hide yes)
				)
			)
			(property "ki_fp_filters" "TO?252* TO?263* TO?220*"
				(at 0 0 0)
				(effects
					(font
						(size 1.27 1.27)
					)
					(hide yes)
				)
			)
			(symbol "L7812_0_1"
				(rectangle
					(start -5.08 1.905)
					(end 5.08 -5.08)
					(stroke
						(width 0.254)
						(type default)
					)
					(fill
						(type background)
					)
				)
			)
			(symbol "L7812_1_1"
				(pin power_in line
					(at -7.62 0 0)
					(length 2.54)
					(name "IN"
						(effects
							(font
								(size 1.27 1.27)
							)
						)
					)
					(number "1"
						(effects
							(font
								(size 1.27 1.27)
							)
						)
					)
				)
				(pin power_in line
					(at 0 -7.62 90)
					(length 2.54)
					(name "GND"
						(effects
							(font
								(size 1.27 1.27)
							)
						)
					)
					(number "2"
						(effects
							(font
								(size 1.27 1.27)
							)
						)
					)
				)
				(pin power_out line
					(at 7.62 0 180)
					(length 2.54)
					(name "OUT"
						(effects
							(font
								(size 1.27 1.27)
							)
						)
					)
					(number "3"
						(effects
							(font
								(size 1.27 1.27)
							)
						)
					)
				)
			)
		)
	)
	(junction
		(at 139.7 86.36)
		(diameter 0)
		(color 0 0 0 0)
		(uuid "1623001c-02d3-4ad7-b287-9e64f23aea6a")
	)
	(junction
		(at 99.06 46.99)
		(diameter 0)
		(color 0 0 0 0)
		(uuid "1cad49cb-fd4c-4a5b-859b-7dcc16816381")
	)
	(junction
		(at 99.06 35.56)
		(diameter 0)
		(color 0 0 0 0)
		(uuid "1eadf38d-0430-4269-b515-60b187a4fbc4")
	)
	(junction
		(at 97.79 144.78)
		(diameter 0)
		(color 0 0 0 0)
		(uuid "3f24eb83-0bd9-433b-983f-d4c26759d5d3")
	)
	(junction
		(at 114.3 144.78)
		(diameter 0)
		(color 0 0 0 0)
		(uuid "4516c001-db0f-4985-9bc8-3d3426021eed")
	)
	(junction
		(at 99.06 22.86)
		(diameter 0)
		(color 0 0 0 0)
		(uuid "479658b2-c6e9-4aff-8984-1f71de3ed9db")
	)
	(junction
		(at 139.7 99.06)
		(diameter 0)
		(color 0 0 0 0)
		(uuid "58188dea-38d5-4ded-beac-b74f7cf7f65a")
	)
	(junction
		(at 97.79 129.54)
		(diameter 0)
		(color 0 0 0 0)
		(uuid "59f5237f-45ce-404b-afb1-6af7660e8b0f")
	)
	(junction
		(at 115.57 22.86)
		(diameter 0)
		(color 0 0 0 0)
		(uuid "5d5f3cc0-f4d3-4e15-aaac-4a724874874f")
	)
	(junction
		(at 144.78 132.08)
		(diameter 0)
		(color 0 0 0 0)
		(uuid "6c414065-f891-46bc-89b3-715a5a2e9504")
	)
	(junction
		(at 50.8 46.99)
		(diameter 0)
		(color 0 0 0 0)
		(uuid "72f53d9d-f3d8-4ec6-b104-aa49a712383c")
	)
	(junction
		(at 90.17 22.86)
		(diameter 0)
		(color 0 0 0 0)
		(uuid "76124b90-0073-4c32-8d83-f5eb2b419284")
	)
	(junction
		(at 90.17 46.99)
		(diameter 0)
		(color 0 0 0 0)
		(uuid "7af0c2f1-ef86-4025-bd04-853b44efade8")
	)
	(junction
		(at 144.78 144.78)
		(diameter 0)
		(color 0 0 0 0)
		(uuid "95aed702-aa87-46fc-b9b4-8671d7d3f040")
	)
	(junction
		(at 59.69 46.99)
		(diameter 0)
		(color 0 0 0 0)
		(uuid "979a6bf7-3639-4bfc-ab7a-ae8175735b25")
	)
	(junction
		(at 115.57 46.99)
		(diameter 0)
		(color 0 0 0 0)
		(uuid "9dc3fda0-6857-4d72-883a-febb7dc04852")
	)
	(junction
		(at 40.64 22.86)
		(diameter 0)
		(color 0 0 0 0)
		(uuid "a2489467-5341-4e91-83b6-c2f4816af469")
	)
	(junction
		(at 40.64 46.99)
		(diameter 0)
		(color 0 0 0 0)
		(uuid "aa738908-bde4-44ed-9be0-54358a2ac7ae")
	)
	(junction
		(at 115.57 35.56)
		(diameter 0)
		(color 0 0 0 0)
		(uuid "b1e5dd90-e8ca-4afa-9138-8e16d2cd0ccc")
	)
	(junction
		(at 59.69 22.86)
		(diameter 0)
		(color 0 0 0 0)
		(uuid "bf3b5f97-b6da-485f-af3c-c5a712c8ee88")
	)
	(junction
		(at 107.95 22.86)
		(diameter 0)
		(color 0 0 0 0)
		(uuid "c9e3849c-ea42-4c74-b219-aa5d5db332c4")
	)
	(junction
		(at 107.95 46.99)
		(diameter 0)
		(color 0 0 0 0)
		(uuid "d3543250-a039-4e5d-b380-024a39701917")
	)
	(junction
		(at 97.79 83.82)
		(diameter 0)
		(color 0 0 0 0)
		(uuid "db7e6bd5-abfc-4c18-ba6d-066baefabce7")
	)
	(junction
		(at 115.57 99.06)
		(diameter 0)
		(color 0 0 0 0)
		(uuid "dc9d42a4-15f0-46f1-a1a4-e54ce0bdf7ce")
	)
	(junction
		(at 66.04 144.78)
		(diameter 0)
		(color 0 0 0 0)
		(uuid "eb28348b-664e-45aa-b389-7d770dc763a6")
	)
	(junction
		(at 97.79 99.06)
		(diameter 0)
		(color 0 0 0 0)
		(uuid "fce5bb68-52e8-4e9e-94da-78c34c4079c6")
	)
	(no_connect
		(at 106.68 154.94)
		(uuid "4254ede5-cee9-45dd-a500-7473067e1cc5")
	)
	(no_connect
		(at 107.95 110.49)
		(uuid "9f2c9084-da88-41a6-b276-975f211312ee")
	)
	(wire
		(pts
			(xy 129.54 36.83) (xy 129.54 35.56)
		)
		(stroke
			(width 0)
			(type default)
		)
		(uuid "02f06c92-cb1d-4917-85b2-edf9923385c0")
	)
	(wire
		(pts
			(xy 31.75 25.4) (xy 35.56 25.4)
		)
		(stroke
			(width 0)
			(type default)
		)
		(uuid "08cb2b82-957c-4335-ac6c-e2c2fe6c71f1")
	)
	(wire
		(pts
			(xy 69.85 129.54) (xy 85.09 129.54)
		)
		(stroke
			(width 0)
			(type default)
		)
		(uuid "0d31559e-c01b-47dd-a738-86970221ff63")
	)
	(wire
		(pts
			(xy 110.49 99.06) (xy 115.57 99.06)
		)
		(stroke
			(width 0)
			(type default)
		)
		(uuid "0d397404-b7ee-4674-9f4f-db44ff2b4e58")
	)
	(wire
		(pts
			(xy 90.17 46.99) (xy 99.06 46.99)
		)
		(stroke
			(width 0)
			(type default)
		)
		(uuid "0d7a5f05-5018-422d-a313-b0e59d64ce07")
	)
	(wire
		(pts
			(xy 114.3 134.62) (xy 114.3 144.78)
		)
		(stroke
			(width 0)
			(type default)
		)
		(uuid "0ef1d553-bd54-41b6-a31f-eb422bf7418d")
	)
	(wire
		(pts
			(xy 97.79 129.54) (xy 115.57 129.54)
		)
		(stroke
			(width 0)
			(type default)
		)
		(uuid "0f6dc6aa-47cc-45cb-9dfb-ca5c7d8106e7")
	)
	(wire
		(pts
			(xy 97.79 144.78) (xy 97.79 147.32)
		)
		(stroke
			(width 0)
			(type default)
		)
		(uuid "0f7db8c0-95c2-41d4-a6b3-fe1842b47653")
	)
	(wire
		(pts
			(xy 59.69 46.99) (xy 90.17 46.99)
		)
		(stroke
			(width 0)
			(type default)
		)
		(uuid "10f5bc6a-3c42-41ec-8d51-b0e9d340c2fc")
	)
	(wire
		(pts
			(xy 115.57 88.9) (xy 116.84 88.9)
		)
		(stroke
			(width 0)
			(type default)
		)
		(uuid "1185dc38-c53a-431e-b09e-cbb1056d7e83")
	)
	(wire
		(pts
			(xy 99.06 44.45) (xy 99.06 46.99)
		)
		(stroke
			(width 0)
			(type default)
		)
		(uuid "14654fd0-a10b-4a9f-904d-97b3f96b3663")
	)
	(wire
		(pts
			(xy 90.17 22.86) (xy 99.06 22.86)
		)
		(stroke
			(width 0)
			(type default)
		)
		(uuid "1f33e4b9-3cea-4b0f-9e68-81eb56a851e1")
	)
	(wire
		(pts
			(xy 35.56 46.99) (xy 40.64 46.99)
		)
		(stroke
			(width 0)
			(type default)
		)
		(uuid "229d42ef-0587-45ed-bff9-5876e741568c")
	)
	(wire
		(pts
			(xy 59.69 22.86) (xy 90.17 22.86)
		)
		(stroke
			(width 0)
			(type default)
		)
		(uuid "23fdb594-1d0a-4af3-8bfc-38ecc175ccec")
	)
	(wire
		(pts
			(xy 99.06 25.4) (xy 99.06 22.86)
		)
		(stroke
			(width 0)
			(type default)
		)
		(uuid "265d5f71-9c3d-4f0a-a192-84876a8848d7")
	)
	(wire
		(pts
			(xy 90.17 22.86) (xy 90.17 25.4)
		)
		(stroke
			(width 0)
			(type default)
		)
		(uuid "29174cfb-3f14-44da-96ae-8a6e98d2ee26")
	)
	(wire
		(pts
			(xy 134.62 110.49) (xy 139.7 110.49)
		)
		(stroke
			(width 0)
			(type default)
		)
		(uuid "2a0d5b46-c4a3-4ea5-b2d8-d824679e1464")
	)
	(wire
		(pts
			(xy 115.57 46.99) (xy 107.95 46.99)
		)
		(stroke
			(width 0)
			(type default)
		)
		(uuid "2bc57056-5f61-450e-9e21-ae07403e54da")
	)
	(wire
		(pts
			(xy 90.17 39.37) (xy 90.17 46.99)
		)
		(stroke
			(width 0)
			(type default)
		)
		(uuid "33a2fad6-1df8-4cb1-9629-ddee9fabb331")
	)
	(wire
		(pts
			(xy 66.04 133.35) (xy 66.04 144.78)
		)
		(stroke
			(width 0)
			(type default)
		)
		(uuid "3b9aed63-f2d3-4bf5-ade3-baa18b01b331")
	)
	(wire
		(pts
			(xy 59.69 38.1) (xy 59.69 46.99)
		)
		(stroke
			(width 0)
			(type default)
		)
		(uuid "3f76d891-5a55-4ca5-9f1d-95567626a992")
	)
	(wire
		(pts
			(xy 160.02 91.44) (xy 154.94 91.44)
		)
		(stroke
			(width 0)
			(type default)
		)
		(uuid "400dc5d1-23b3-4514-a2b9-73fe8d64af04")
	)
	(wire
		(pts
			(xy 144.78 154.94) (xy 144.78 144.78)
		)
		(stroke
			(width 0)
			(type default)
		)
		(uuid "42bb27ea-42cc-4440-865d-728f8edaa77a")
	)
	(wire
		(pts
			(xy 107.95 49.53) (xy 107.95 46.99)
		)
		(stroke
			(width 0)
			(type default)
		)
		(uuid "435b8698-df8e-4ce5-9314-cae139d94b76")
	)
	(wire
		(pts
			(xy 99.06 46.99) (xy 107.95 46.99)
		)
		(stroke
			(width 0)
			(type default)
		)
		(uuid "497403bb-80e0-484d-b48d-891816e9352a")
	)
	(wire
		(pts
			(xy 80.01 76.2) (xy 54.61 76.2)
		)
		(stroke
			(width 0)
			(type default)
		)
		(uuid "4c355a69-765c-407a-b44f-90bcc0f0782d")
	)
	(wire
		(pts
			(xy 31.75 22.86) (xy 40.64 22.86)
		)
		(stroke
			(width 0)
			(type default)
		)
		(uuid "4cad03e5-c78a-456d-8244-ef9fafc3f817")
	)
	(wire
		(pts
			(xy 58.42 22.86) (xy 59.69 22.86)
		)
		(stroke
			(width 0)
			(type default)
		)
		(uuid "4d39f6b6-bd71-4bc0-9af9-8cbab1d6f039")
	)
	(wire
		(pts
			(xy 80.01 80.01) (xy 80.01 76.2)
		)
		(stroke
			(width 0)
			(type default)
		)
		(uuid "4f9c699f-3027-4482-a627-3e3fdb80ab8c")
	)
	(wire
		(pts
			(xy 127 144.78) (xy 114.3 144.78)
		)
		(stroke
			(width 0)
			(type default)
		)
		(uuid "5184d72f-6ae9-496f-b93d-13153c01aec0")
	)
	(wire
		(pts
			(xy 97.79 100.33) (xy 97.79 99.06)
		)
		(stroke
			(width 0)
			(type default)
		)
		(uuid "51e1141c-6fce-4a30-a924-77b1c579694a")
	)
	(wire
		(pts
			(xy 99.06 33.02) (xy 99.06 35.56)
		)
		(stroke
			(width 0)
			(type default)
		)
		(uuid "53fa0114-f58f-4844-a184-927b20117fed")
	)
	(wire
		(pts
			(xy 144.78 144.78) (xy 134.62 144.78)
		)
		(stroke
			(width 0)
			(type default)
		)
		(uuid "5727234f-9266-4ef7-a1db-3a15f9e8b143")
	)
	(wire
		(pts
			(xy 107.95 22.86) (xy 115.57 22.86)
		)
		(stroke
			(width 0)
			(type default)
		)
		(uuid "5a348fc6-c824-4e50-b696-0da7ab8f8d64")
	)
	(wire
		(pts
			(xy 102.87 99.06) (xy 97.79 99.06)
		)
		(stroke
			(width 0)
			(type default)
		)
		(uuid "5ae51e0a-f2f3-498d-a13f-2c157bd53c63")
	)
	(wire
		(pts
			(xy 115.57 88.9) (xy 115.57 99.06)
		)
		(stroke
			(width 0)
			(type default)
		)
		(uuid "5ed11b08-9f9f-472d-9d92-0c09eeed3e8f")
	)
	(wire
		(pts
			(xy 92.71 83.82) (xy 97.79 83.82)
		)
		(stroke
			(width 0)
			(type default)
		)
		(uuid "6123f3b8-dc2a-488d-a462-0750fabb6f5c")
	)
	(wire
		(pts
			(xy 114.3 134.62) (xy 115.57 134.62)
		)
		(stroke
			(width 0)
			(type default)
		)
		(uuid "61b5e60d-b65c-4db5-b81d-323cfa20839d")
	)
	(wire
		(pts
			(xy 115.57 44.45) (xy 115.57 46.99)
		)
		(stroke
			(width 0)
			(type default)
		)
		(uuid "64a6d45d-6a62-45b8-ad11-39b8d80c2d81")
	)
	(wire
		(pts
			(xy 90.17 39.37) (xy 83.82 39.37)
		)
		(stroke
			(width 0)
			(type default)
		)
		(uuid "6c4906d9-596a-4aef-8103-882f106bcd44")
	)
	(wire
		(pts
			(xy 50.8 30.48) (xy 50.8 46.99)
		)
		(stroke
			(width 0)
			(type default)
		)
		(uuid "6faed3c1-3b62-4d7e-a116-6fc89814d4d7")
	)
	(wire
		(pts
			(xy 139.7 110.49) (xy 139.7 99.06)
		)
		(stroke
			(width 0)
			(type default)
		)
		(uuid "709eedc2-3aa9-4c18-824b-dde18a8ad1b1")
	)
	(wire
		(pts
			(xy 99.06 22.86) (xy 107.95 22.86)
		)
		(stroke
			(width 0)
			(type default)
		)
		(uuid "71f3f815-2fe1-4427-ae26-284470c46a6f")
	)
	(wire
		(pts
			(xy 66.04 78.74) (xy 66.04 125.73)
		)
		(stroke
			(width 0)
			(type default)
		)
		(uuid "73cf69c9-fa3f-42a2-8986-f45cdb072a77")
	)
	(wire
		(pts
			(xy 144.78 132.08) (xy 144.78 144.78)
		)
		(stroke
			(width 0)
			(type default)
		)
		(uuid "74f6fc5e-b32b-4302-9d88-01818fe4c677")
	)
	(wire
		(pts
			(xy 115.57 35.56) (xy 115.57 36.83)
		)
		(stroke
			(width 0)
			(type default)
		)
		(uuid "75159aee-b7f1-4ee4-8a55-7e6f3bab8c7f")
	)
	(wire
		(pts
			(xy 43.18 22.86) (xy 40.64 22.86)
		)
		(stroke
			(width 0)
			(type default)
		)
		(uuid "753d2090-3292-4776-997d-c9ae9bbb2f99")
	)
	(wire
		(pts
			(xy 115.57 22.86) (xy 139.7 22.86)
		)
		(stroke
			(width 0)
			(type default)
		)
		(uuid "760d7990-3a6b-43c0-87b6-20eab55a5fae")
	)
	(wire
		(pts
			(xy 99.06 35.56) (xy 99.06 36.83)
		)
		(stroke
			(width 0)
			(type default)
		)
		(uuid "76c09064-1ef3-40c5-a06b-a985eaa8dc13")
	)
	(wire
		(pts
			(xy 144.78 132.08) (xy 144.78 88.9)
		)
		(stroke
			(width 0)
			(type default)
		)
		(uuid "78cc8a70-ae52-4853-9c47-6ddee4bb896f")
	)
	(wire
		(pts
			(xy 160.02 88.9) (xy 144.78 88.9)
		)
		(stroke
			(width 0)
			(type default)
		)
		(uuid "7b8a26e1-e267-4a32-8b5e-c5575e58d29f")
	)
	(wire
		(pts
			(xy 106.68 154.94) (xy 110.49 154.94)
		)
		(stroke
			(width 0)
			(type default)
		)
		(uuid "7c32423b-54a7-438a-97ef-aa0b2701ff7d")
	)
	(wire
		(pts
			(xy 127 154.94) (xy 118.11 154.94)
		)
		(stroke
			(width 0)
			(type default)
		)
		(uuid "7dc45428-09e4-42d5-a0e3-b2a56b2bea15")
	)
	(wire
		(pts
			(xy 35.56 25.4) (xy 35.56 46.99)
		)
		(stroke
			(width 0)
			(type default)
		)
		(uuid "7f619371-cfb1-44ed-b118-14f615486a72")
	)
	(wire
		(pts
			(xy 57.15 144.78) (xy 57.15 81.28)
		)
		(stroke
			(width 0)
			(type default)
		)
		(uuid "8081951a-580b-4100-b658-277f725aa1e4")
	)
	(wire
		(pts
			(xy 115.57 35.56) (xy 99.06 35.56)
		)
		(stroke
			(width 0)
			(type default)
		)
		(uuid "8321f392-dad7-4ddc-972f-7f78397abd9a")
	)
	(wire
		(pts
			(xy 107.95 22.86) (xy 107.95 20.32)
		)
		(stroke
			(width 0)
			(type default)
		)
		(uuid "8570ad52-8d4e-4e72-85e3-95d16a23a0fa")
	)
	(wire
		(pts
			(xy 92.71 129.54) (xy 97.79 129.54)
		)
		(stroke
			(width 0)
			(type default)
		)
		(uuid "8666fe0e-669d-4e4b-a410-850867fb906b")
	)
	(wire
		(pts
			(xy 83.82 83.82) (xy 85.09 83.82)
		)
		(stroke
			(width 0)
			(type default)
		)
		(uuid "89d54da2-047f-4295-8f24-86af479b4b02")
	)
	(wire
		(pts
			(xy 97.79 86.36) (xy 97.79 83.82)
		)
		(stroke
			(width 0)
			(type default)
		)
		(uuid "8a7711f8-ce70-4a8b-b709-2b5f716d731a")
	)
	(wire
		(pts
			(xy 154.94 91.44) (xy 154.94 96.52)
		)
		(stroke
			(width 0)
			(type default)
		)
		(uuid "8d9ec1c7-21eb-40cc-b5c4-78cc5d7f2e28")
	)
	(wire
		(pts
			(xy 80.01 87.63) (xy 80.01 99.06)
		)
		(stroke
			(width 0)
			(type default)
		)
		(uuid "8eba4bef-7127-459b-a03a-806877932c24")
	)
	(wire
		(pts
			(xy 57.15 144.78) (xy 66.04 144.78)
		)
		(stroke
			(width 0)
			(type default)
		)
		(uuid "8fb7bd92-cd09-43fc-bc77-e87f94697216")
	)
	(wire
		(pts
			(xy 115.57 46.99) (xy 139.7 46.99)
		)
		(stroke
			(width 0)
			(type default)
		)
		(uuid "8fc38d29-0c62-43c7-ace8-8dd739c1a4d8")
	)
	(wire
		(pts
			(xy 115.57 106.68) (xy 115.57 99.06)
		)
		(stroke
			(width 0)
			(type default)
		)
		(uuid "90012e49-5923-47a3-a66f-73b6a945fa28")
	)
	(wire
		(pts
			(xy 114.3 151.13) (xy 114.3 144.78)
		)
		(stroke
			(width 0)
			(type default)
		)
		(uuid "94ad5e43-da9d-4706-b45f-892ad9230386")
	)
	(wire
		(pts
			(xy 139.7 86.36) (xy 160.02 86.36)
		)
		(stroke
			(width 0)
			(type default)
		)
		(uuid "94b47e5a-02db-471c-88a8-8890e69db302")
	)
	(wire
		(pts
			(xy 83.82 36.83) (xy 90.17 36.83)
		)
		(stroke
			(width 0)
			(type default)
		)
		(uuid "95390b22-cd5b-46e4-b1fc-e0bfb6f3957b")
	)
	(wire
		(pts
			(xy 139.7 86.36) (xy 139.7 99.06)
		)
		(stroke
			(width 0)
			(type default)
		)
		(uuid "96c18f30-cbc7-4af6-a06c-95c30ee71cac")
	)
	(wire
		(pts
			(xy 97.79 99.06) (xy 97.79 93.98)
		)
		(stroke
			(width 0)
			(type default)
		)
		(uuid "9e477881-763f-446d-9d7d-06ea3cf63aa5")
	)
	(wire
		(pts
			(xy 134.62 99.06) (xy 139.7 99.06)
		)
		(stroke
			(width 0)
			(type default)
		)
		(uuid "9f21a481-fa0d-468a-b78c-d62d034cfcdf")
	)
	(wire
		(pts
			(xy 90.17 33.02) (xy 90.17 36.83)
		)
		(stroke
			(width 0)
			(type default)
		)
		(uuid "a02eb364-d8a1-47e8-885c-006cd697d5d2")
	)
	(wire
		(pts
			(xy 54.61 78.74) (xy 66.04 78.74)
		)
		(stroke
			(width 0)
			(type default)
		)
		(uuid "a6e4f740-d61e-4430-86c8-c2689f10274c")
	)
	(wire
		(pts
			(xy 130.81 132.08) (xy 144.78 132.08)
		)
		(stroke
			(width 0)
			(type default)
		)
		(uuid "a706e8fd-e389-41a5-814e-8db794509ab0")
	)
	(wire
		(pts
			(xy 139.7 22.86) (xy 139.7 25.4)
		)
		(stroke
			(width 0)
			(type default)
		)
		(uuid "ae6ed5db-0639-47bd-b0d8-aeaf8151dabf")
	)
	(wire
		(pts
			(xy 40.64 38.1) (xy 40.64 46.99)
		)
		(stroke
			(width 0)
			(type default)
		)
		(uuid "b36ea13b-ac56-4975-acb2-1cd95aa23851")
	)
	(wire
		(pts
			(xy 109.22 144.78) (xy 114.3 144.78)
		)
		(stroke
			(width 0)
			(type default)
		)
		(uuid "b448d936-822b-4679-8066-a838eb3d3646")
	)
	(wire
		(pts
			(xy 139.7 40.64) (xy 139.7 46.99)
		)
		(stroke
			(width 0)
			(type default)
		)
		(uuid "ba1b827b-bddb-4c13-8308-7bb80cbeef59")
	)
	(wire
		(pts
			(xy 115.57 33.02) (xy 115.57 35.56)
		)
		(stroke
			(width 0)
			(type default)
		)
		(uuid "bc4e5b2b-c44a-4827-ae12-2a0e836657d5")
	)
	(wire
		(pts
			(xy 80.01 99.06) (xy 97.79 99.06)
		)
		(stroke
			(width 0)
			(type default)
		)
		(uuid "bfdee41c-c3ba-468e-a785-f7bd6742e78d")
	)
	(wire
		(pts
			(xy 97.79 144.78) (xy 66.04 144.78)
		)
		(stroke
			(width 0)
			(type default)
		)
		(uuid "c0500ce3-229c-429a-8941-6717aa6fefdc")
	)
	(wire
		(pts
			(xy 59.69 22.86) (xy 59.69 30.48)
		)
		(stroke
			(width 0)
			(type default)
		)
		(uuid "c0862bb9-f353-4a8d-bd62-a520d7a9875a")
	)
	(wire
		(pts
			(xy 134.62 154.94) (xy 144.78 154.94)
		)
		(stroke
			(width 0)
			(type default)
		)
		(uuid "c1916651-2440-43ed-9708-d23d684c0f66")
	)
	(wire
		(pts
			(xy 97.79 83.82) (xy 116.84 83.82)
		)
		(stroke
			(width 0)
			(type default)
		)
		(uuid "c3f08b6f-ae56-4095-9271-43d942955f65")
	)
	(wire
		(pts
			(xy 115.57 35.56) (xy 129.54 35.56)
		)
		(stroke
			(width 0)
			(type default)
		)
		(uuid "cc2780a0-afbc-4770-b2cc-c2e9673ccaa7")
	)
	(wire
		(pts
			(xy 115.57 22.86) (xy 115.57 25.4)
		)
		(stroke
			(width 0)
			(type default)
		)
		(uuid "d2cdc9a1-f590-4010-975e-aecc013e13e3")
	)
	(wire
		(pts
			(xy 119.38 110.49) (xy 127 110.49)
		)
		(stroke
			(width 0)
			(type default)
		)
		(uuid "d5671b32-3cb9-4b91-a596-d10a48b87ab7")
	)
	(wire
		(pts
			(xy 107.95 110.49) (xy 111.76 110.49)
		)
		(stroke
			(width 0)
			(type default)
		)
		(uuid "da6fc513-ac95-4c18-8d54-3c525b2b53e6")
	)
	(wire
		(pts
			(xy 97.79 139.7) (xy 97.79 144.78)
		)
		(stroke
			(width 0)
			(type default)
		)
		(uuid "db03c2e9-fd23-4da2-921a-dccb5aba9f54")
	)
	(wire
		(pts
			(xy 127 99.06) (xy 115.57 99.06)
		)
		(stroke
			(width 0)
			(type default)
		)
		(uuid "e0f9c2d7-f80c-4e88-b6e3-b05c7f23aaac")
	)
	(wire
		(pts
			(xy 57.15 81.28) (xy 54.61 81.28)
		)
		(stroke
			(width 0)
			(type default)
		)
		(uuid "e7a6af9a-c243-408e-9d58-bfe6e543f876")
	)
	(wire
		(pts
			(xy 40.64 46.99) (xy 50.8 46.99)
		)
		(stroke
			(width 0)
			(type default)
		)
		(uuid "eb254d1b-64f8-4af1-a140-5c02af57692c")
	)
	(wire
		(pts
			(xy 97.79 144.78) (xy 101.6 144.78)
		)
		(stroke
			(width 0)
			(type default)
		)
		(uuid "f2dad0e9-6178-4201-9b98-573d8d491a6f")
	)
	(wire
		(pts
			(xy 50.8 46.99) (xy 59.69 46.99)
		)
		(stroke
			(width 0)
			(type default)
		)
		(uuid "fae3f3df-0b05-4ed8-bfdd-761ad4e9573a")
	)
	(wire
		(pts
			(xy 132.08 86.36) (xy 139.7 86.36)
		)
		(stroke
			(width 0)
			(type default)
		)
		(uuid "fbf36153-fc27-45fd-a27b-30a3695e821c")
	)
	(wire
		(pts
			(xy 97.79 132.08) (xy 97.79 129.54)
		)
		(stroke
			(width 0)
			(type default)
		)
		(uuid "fd60463c-650d-4c61-9c3c-83c4caa51017")
	)
	(wire
		(pts
			(xy 40.64 30.48) (xy 40.64 22.86)
		)
		(stroke
			(width 0)
			(type default)
		)
		(uuid "fe09fbeb-a5fb-4d1f-b595-8783a006337e")
	)
	(symbol
		(lib_id "Mechanical:MountingHole")
		(at 179.07 25.4 0)
		(unit 1)
		(exclude_from_sim no)
		(in_bom yes)
		(on_board yes)
		(dnp no)
		(uuid "00000000-0000-0000-0000-00005f41cc10")
		(property "Reference" "H1"
			(at 181.61 24.2316 0)
			(effects
				(font
					(size 1.27 1.27)
				)
				(justify left)
			)
		)
		(property "Value" "MountingHole"
			(at 181.61 26.543 0)
			(effects
				(font
					(size 1.27 1.27)
				)
				(justify left)
			)
		)
		(property "Footprint" "MountingHole:MountingHole_3.2mm_M3_Pad"
			(at 179.07 25.4 0)
			(effects
				(font
					(size 1.27 1.27)
				)
				(hide yes)
			)
		)
		(property "Datasheet" "~"
			(at 179.07 25.4 0)
			(effects
				(font
					(size 1.27 1.27)
				)
				(hide yes)
			)
		)
		(property "Description" ""
			(at 179.07 25.4 0)
			(effects
				(font
					(size 1.27 1.27)
				)
				(hide yes)
			)
		)
		(instances
			(project ""
				(path "/2885994b-2fd3-4618-a25f-f1974be1c28f"
					(reference "H1")
					(unit 1)
				)
			)
		)
	)
	(symbol
		(lib_id "Mechanical:MountingHole")
		(at 179.07 33.02 0)
		(unit 1)
		(exclude_from_sim no)
		(in_bom yes)
		(on_board yes)
		(dnp no)
		(uuid "00000000-0000-0000-0000-00005f41e8ea")
		(property "Reference" "H2"
			(at 181.61 31.8516 0)
			(effects
				(font
					(size 1.27 1.27)
				)
				(justify left)
			)
		)
		(property "Value" "MountingHole"
			(at 181.61 34.163 0)
			(effects
				(font
					(size 1.27 1.27)
				)
				(justify left)
			)
		)
		(property "Footprint" "MountingHole:MountingHole_3.2mm_M3_Pad"
			(at 179.07 33.02 0)
			(effects
				(font
					(size 1.27 1.27)
				)
				(hide yes)
			)
		)
		(property "Datasheet" "~"
			(at 179.07 33.02 0)
			(effects
				(font
					(size 1.27 1.27)
				)
				(hide yes)
			)
		)
		(property "Description" ""
			(at 179.07 33.02 0)
			(effects
				(font
					(size 1.27 1.27)
				)
				(hide yes)
			)
		)
		(instances
			(project ""
				(path "/2885994b-2fd3-4618-a25f-f1974be1c28f"
					(reference "H2")
					(unit 1)
				)
			)
		)
	)
	(symbol
		(lib_id "Mechanical:MountingHole")
		(at 179.07 39.37 0)
		(unit 1)
		(exclude_from_sim no)
		(in_bom yes)
		(on_board yes)
		(dnp no)
		(uuid "00000000-0000-0000-0000-00005f41eadd")
		(property "Reference" "H3"
			(at 181.61 38.2016 0)
			(effects
				(font
					(size 1.27 1.27)
				)
				(justify left)
			)
		)
		(property "Value" "MountingHole"
			(at 181.61 40.513 0)
			(effects
				(font
					(size 1.27 1.27)
				)
				(justify left)
			)
		)
		(property "Footprint" "MountingHole:MountingHole_3.2mm_M3_Pad"
			(at 179.07 39.37 0)
			(effects
				(font
					(size 1.27 1.27)
				)
				(hide yes)
			)
		)
		(property "Datasheet" "~"
			(at 179.07 39.37 0)
			(effects
				(font
					(size 1.27 1.27)
				)
				(hide yes)
			)
		)
		(property "Description" ""
			(at 179.07 39.37 0)
			(effects
				(font
					(size 1.27 1.27)
				)
				(hide yes)
			)
		)
		(instances
			(project ""
				(path "/2885994b-2fd3-4618-a25f-f1974be1c28f"
					(reference "H3")
					(unit 1)
				)
			)
		)
	)
	(symbol
		(lib_id "Mechanical:MountingHole")
		(at 179.07 45.72 0)
		(unit 1)
		(exclude_from_sim no)
		(in_bom yes)
		(on_board yes)
		(dnp no)
		(uuid "00000000-0000-0000-0000-00005f41ecc9")
		(property "Reference" "H4"
			(at 181.61 44.5516 0)
			(effects
				(font
					(size 1.27 1.27)
				)
				(justify left)
			)
		)
		(property "Value" "MountingHole"
			(at 181.61 46.863 0)
			(effects
				(font
					(size 1.27 1.27)
				)
				(justify left)
			)
		)
		(property "Footprint" "MountingHole:MountingHole_3.2mm_M3_Pad"
			(at 179.07 45.72 0)
			(effects
				(font
					(size 1.27 1.27)
				)
				(hide yes)
			)
		)
		(property "Datasheet" "~"
			(at 179.07 45.72 0)
			(effects
				(font
					(size 1.27 1.27)
				)
				(hide yes)
			)
		)
		(property "Description" ""
			(at 179.07 45.72 0)
			(effects
				(font
					(size 1.27 1.27)
				)
				(hide yes)
			)
		)
		(instances
			(project ""
				(path "/2885994b-2fd3-4618-a25f-f1974be1c28f"
					(reference "H4")
					(unit 1)
				)
			)
		)
	)
	(symbol
		(lib_id "Device:R")
		(at 90.17 29.21 0)
		(unit 1)
		(exclude_from_sim no)
		(in_bom yes)
		(on_board yes)
		(dnp no)
		(uuid "00000000-0000-0000-0000-00005f55b009")
		(property "Reference" "R?"
			(at 91.948 28.0416 0)
			(effects
				(font
					(size 1.27 1.27)
				)
				(justify left)
			)
		)
		(property "Value" "10k"
			(at 91.948 30.353 0)
			(effects
				(font
					(size 1.27 1.27)
				)
				(justify left)
			)
		)
		(property "Footprint" "Resistor_SMD:R_1206_3216Metric_Pad1.42x1.75mm_HandSolder"
			(at 88.392 29.21 90)
			(effects
				(font
					(size 1.27 1.27)
				)
				(hide yes)
			)
		)
		(property "Datasheet" "~"
			(at 90.17 29.21 0)
			(effects
				(font
					(size 1.27 1.27)
				)
				(hide yes)
			)
		)
		(property "Description" ""
			(at 90.17 29.21 0)
			(effects
				(font
					(size 1.27 1.27)
				)
				(hide yes)
			)
		)
		(pin "1"
			(uuid "0d266b21-e448-4d44-bc3e-94b85de0621c")
		)
		(pin "2"
			(uuid "1a98b56a-5534-4feb-83ff-7697390e17eb")
		)
		(instances
			(project ""
				(path "/2885994b-2fd3-4618-a25f-f1974be1c28f"
					(reference "R1")
					(unit 1)
				)
			)
		)
	)
	(symbol
		(lib_id "Device:C")
		(at 40.64 34.29 0)
		(unit 1)
		(exclude_from_sim no)
		(in_bom yes)
		(on_board yes)
		(dnp no)
		(uuid "00000000-0000-0000-0000-00005f55b010")
		(property "Reference" "C?"
			(at 43.561 33.1216 0)
			(effects
				(font
					(size 1.27 1.27)
				)
				(justify left)
			)
		)
		(property "Value" "1u"
			(at 43.561 35.433 0)
			(effects
				(font
					(size 1.27 1.27)
				)
				(justify left)
			)
		)
		(property "Footprint" "Capacitor_SMD:C_1206_3216Metric_Pad1.42x1.75mm_HandSolder"
			(at 41.6052 38.1 0)
			(effects
				(font
					(size 1.27 1.27)
				)
				(hide yes)
			)
		)
		(property "Datasheet" "~"
			(at 40.64 34.29 0)
			(effects
				(font
					(size 1.27 1.27)
				)
				(hide yes)
			)
		)
		(property "Description" ""
			(at 40.64 34.29 0)
			(effects
				(font
					(size 1.27 1.27)
				)
				(hide yes)
			)
		)
		(pin "2"
			(uuid "95b3b41a-3ffd-4a73-8c61-8dcf7c1eca9d")
		)
		(pin "1"
			(uuid "f1854ac7-529d-4ccf-b209-da5b5e9ee883")
		)
		(instances
			(project ""
				(path "/2885994b-2fd3-4618-a25f-f1974be1c28f"
					(reference "C1")
					(unit 1)
				)
			)
		)
	)
	(symbol
		(lib_id "Device:R")
		(at 99.06 40.64 0)
		(unit 1)
		(exclude_from_sim no)
		(in_bom yes)
		(on_board yes)
		(dnp no)
		(uuid "00000000-0000-0000-0000-00005f55b016")
		(property "Reference" "R?"
			(at 100.838 39.4716 0)
			(effects
				(font
					(size 1.27 1.27)
				)
				(justify left)
			)
		)
		(property "Value" "10k"
			(at 100.838 41.783 0)
			(effects
				(font
					(size 1.27 1.27)
				)
				(justify left)
			)
		)
		(property "Footprint" "Resistor_SMD:R_1206_3216Metric_Pad1.42x1.75mm_HandSolder"
			(at 97.282 40.64 90)
			(effects
				(font
					(size 1.27 1.27)
				)
				(hide yes)
			)
		)
		(property "Datasheet" "~"
			(at 99.06 40.64 0)
			(effects
				(font
					(size 1.27 1.27)
				)
				(hide yes)
			)
		)
		(property "Description" ""
			(at 99.06 40.64 0)
			(effects
				(font
					(size 1.27 1.27)
				)
				(hide yes)
			)
		)
		(pin "1"
			(uuid "33fcf57f-384b-48c2-b502-62c069454787")
		)
		(pin "2"
			(uuid "70a88c57-06ed-4560-9ed8-27c132094f9b")
		)
		(instances
			(project ""
				(path "/2885994b-2fd3-4618-a25f-f1974be1c28f"
					(reference "R3")
					(unit 1)
				)
			)
		)
	)
	(symbol
		(lib_id "Regulator_Linear:L7812")
		(at 50.8 22.86 0)
		(unit 1)
		(exclude_from_sim no)
		(in_bom yes)
		(on_board yes)
		(dnp no)
		(uuid "00000000-0000-0000-0000-00005f55b01c")
		(property "Reference" "U?"
			(at 50.8 16.7132 0)
			(effects
				(font
					(size 1.27 1.27)
				)
			)
		)
		(property "Value" "L7812"
			(at 50.8 19.0246 0)
			(effects
				(font
					(size 1.27 1.27)
				)
			)
		)
		(property "Footprint" "Package_TO_SOT_THT:TO-220-3_Vertical"
			(at 51.435 26.67 0)
			(effects
				(font
					(size 1.27 1.27)
					(italic yes)
				)
				(justify left)
				(hide yes)
			)
		)
		(property "Datasheet" "http://www.st.com/content/ccc/resource/technical/document/datasheet/41/4f/b3/b0/12/d4/47/88/CD00000444.pdf/files/CD00000444.pdf/jcr:content/translations/en.CD00000444.pdf"
			(at 50.8 24.13 0)
			(effects
				(font
					(size 1.27 1.27)
				)
				(hide yes)
			)
		)
		(property "Description" ""
			(at 50.8 22.86 0)
			(effects
				(font
					(size 1.27 1.27)
				)
				(hide yes)
			)
		)
		(pin "2"
			(uuid "fe3867d4-cd74-4e7c-853e-0363dc1ed4f7")
		)
		(pin "1"
			(uuid "e397064a-af38-458f-afc1-b2055c4f6e76")
		)
		(pin "3"
			(uuid "94b5e94e-0e14-4158-bbc0-606f7f7d3c57")
		)
		(instances
			(project ""
				(path "/2885994b-2fd3-4618-a25f-f1974be1c28f"
					(reference "U1")
					(unit 1)
				)
			)
		)
	)
	(symbol
		(lib_id "Device:C")
		(at 59.69 34.29 0)
		(unit 1)
		(exclude_from_sim no)
		(in_bom yes)
		(on_board yes)
		(dnp no)
		(uuid "00000000-0000-0000-0000-00005f55b025")
		(property "Reference" "C?"
			(at 62.611 33.1216 0)
			(effects
				(font
					(size 1.27 1.27)
				)
				(justify left)
			)
		)
		(property "Value" "100n"
			(at 62.611 35.433 0)
			(effects
				(font
					(size 1.27 1.27)
				)
				(justify left)
			)
		)
		(property "Footprint" "Capacitor_SMD:C_1206_3216Metric_Pad1.42x1.75mm_HandSolder"
			(at 60.6552 38.1 0)
			(effects
				(font
					(size 1.27 1.27)
				)
				(hide yes)
			)
		)
		(property "Datasheet" "~"
			(at 59.69 34.29 0)
			(effects
				(font
					(size 1.27 1.27)
				)
				(hide yes)
			)
		)
		(property "Description" ""
			(at 59.69 34.29 0)
			(effects
				(font
					(size 1.27 1.27)
				)
				(hide yes)
			)
		)
		(pin "1"
			(uuid "42cfc73c-a5eb-4473-a7d7-33ef8ad9307c")
		)
		(pin "2"
			(uuid "79d51af8-e4ce-4919-888a-815f3adff7c4")
		)
		(instances
			(project ""
				(path "/2885994b-2fd3-4618-a25f-f1974be1c28f"
					(reference "C2")
					(unit 1)
				)
			)
		)
	)
	(symbol
		(lib_id "Amplifier_Operational:OPA2134")
		(at 142.24 33.02 0)
		(unit 3)
		(exclude_from_sim no)
		(in_bom yes)
		(on_board yes)
		(dnp no)
		(uuid "00000000-0000-0000-0000-00005f55b048")
		(property "Reference" "U?"
			(at 141.1732 31.8516 0)
			(effects
				(font
					(size 1.27 1.27)
				)
				(justify left)
			)
		)
		(property "Value" "OPA2134"
			(at 141.1732 34.163 0)
			(effects
				(font
					(size 1.27 1.27)
				)
				(justify left)
			)
		)
		(property "Footprint" "Package_DIP:DIP-8_W7.62mm_LongPads"
			(at 142.24 33.02 0)
			(effects
				(font
					(size 1.27 1.27)
				)
				(hide yes)
			)
		)
		(property "Datasheet" "http://www.ti.com/lit/ds/symlink/opa134.pdf"
			(at 142.24 33.02 0)
			(effects
				(font
					(size 1.27 1.27)
				)
				(hide yes)
			)
		)
		(property "Description" ""
			(at 142.24 33.02 0)
			(effects
				(font
					(size 1.27 1.27)
				)
				(hide yes)
			)
		)
		(pin "4"
			(uuid "1c142c12-3f2e-45be-bd73-55d7da7d0546")
		)
		(pin "2"
			(uuid "bbf85066-6659-4517-bf47-dd7af249e44e")
		)
		(pin "5"
			(uuid "ade16315-b77a-466f-8b43-1a0cd73feb7c")
		)
		(pin "1"
			(uuid "1746999d-b536-4612-ab0b-03d8828a18e6")
		)
		(pin "6"
			(uuid "cff8a1ab-82a0-48ef-83a8-6037778e5b79")
		)
		(pin "7"
			(uuid "a0891c4e-508d-44c0-8674-5a7c74bd3265")
		)
		(pin "3"
			(uuid "90e52cdd-f2ab-48ac-8990-53ea38d14dda")
		)
		(pin "8"
			(uuid "377db1c6-8df2-4432-836e-55c2a7ca4713")
		)
		(instances
			(project ""
				(path "/2885994b-2fd3-4618-a25f-f1974be1c28f"
					(reference "U2")
					(unit 3)
				)
			)
		)
	)
	(symbol
		(lib_id "JKHA-rescue:VEE-power")
		(at 107.95 49.53 180)
		(unit 1)
		(exclude_from_sim no)
		(in_bom yes)
		(on_board yes)
		(dnp no)
		(uuid "00000000-0000-0000-0000-00005f55b051")
		(property "Reference" "#PWR?"
			(at 107.95 45.72 0)
			(effects
				(font
					(size 1.27 1.27)
				)
				(hide yes)
			)
		)
		(property "Value" "VEE"
			(at 107.569 53.9242 0)
			(effects
				(font
					(size 1.27 1.27)
				)
			)
		)
		(property "Footprint" ""
			(at 107.95 49.53 0)
			(effects
				(font
					(size 1.27 1.27)
				)
				(hide yes)
			)
		)
		(property "Datasheet" ""
			(at 107.95 49.53 0)
			(effects
				(font
					(size 1.27 1.27)
				)
				(hide yes)
			)
		)
		(property "Description" ""
			(at 107.95 49.53 0)
			(effects
				(font
					(size 1.27 1.27)
				)
				(hide yes)
			)
		)
		(pin "1"
			(uuid "a961dc44-d1e3-4ea0-b39e-fc573234763a")
		)
		(instances
			(project ""
				(path "/2885994b-2fd3-4618-a25f-f1974be1c28f"
					(reference "#PWR03")
					(unit 1)
				)
			)
		)
	)
	(symbol
		(lib_id "JKHA-rescue:VCC-power")
		(at 107.95 20.32 0)
		(unit 1)
		(exclude_from_sim no)
		(in_bom yes)
		(on_board yes)
		(dnp no)
		(uuid "00000000-0000-0000-0000-00005f55b057")
		(property "Reference" "#PWR?"
			(at 107.95 24.13 0)
			(effects
				(font
					(size 1.27 1.27)
				)
				(hide yes)
			)
		)
		(property "Value" "VCC"
			(at 108.331 15.9258 0)
			(effects
				(font
					(size 1.27 1.27)
				)
			)
		)
		(property "Footprint" ""
			(at 107.95 20.32 0)
			(effects
				(font
					(size 1.27 1.27)
				)
				(hide yes)
			)
		)
		(property "Datasheet" ""
			(at 107.95 20.32 0)
			(effects
				(font
					(size 1.27 1.27)
				)
				(hide yes)
			)
		)
		(property "Description" ""
			(at 107.95 20.32 0)
			(effects
				(font
					(size 1.27 1.27)
				)
				(hide yes)
			)
		)
		(pin "1"
			(uuid "88c0b058-c84e-4476-81dc-1c7bc8e3c367")
		)
		(instances
			(project ""
				(path "/2885994b-2fd3-4618-a25f-f1974be1c28f"
					(reference "#PWR01")
					(unit 1)
				)
			)
		)
	)
	(symbol
		(lib_id "Device:R")
		(at 99.06 29.21 0)
		(unit 1)
		(exclude_from_sim no)
		(in_bom yes)
		(on_board yes)
		(dnp no)
		(uuid "00000000-0000-0000-0000-00005f55b05e")
		(property "Reference" "R?"
			(at 100.838 28.0416 0)
			(effects
				(font
					(size 1.27 1.27)
				)
				(justify left)
			)
		)
		(property "Value" "10k"
			(at 100.838 30.353 0)
			(effects
				(font
					(size 1.27 1.27)
				)
				(justify left)
			)
		)
		(property "Footprint" "Resistor_SMD:R_1206_3216Metric_Pad1.42x1.75mm_HandSolder"
			(at 97.282 29.21 90)
			(effects
				(font
					(size 1.27 1.27)
				)
				(hide yes)
			)
		)
		(property "Datasheet" "~"
			(at 99.06 29.21 0)
			(effects
				(font
					(size 1.27 1.27)
				)
				(hide yes)
			)
		)
		(property "Description" ""
			(at 99.06 29.21 0)
			(effects
				(font
					(size 1.27 1.27)
				)
				(hide yes)
			)
		)
		(pin "2"
			(uuid "21606515-322b-4987-b94e-733eb66cc8a4")
		)
		(pin "1"
			(uuid "1f8becb1-e7e6-4fe3-a662-1f6353668c7d")
		)
		(instances
			(project ""
				(path "/2885994b-2fd3-4618-a25f-f1974be1c28f"
					(reference "R2")
					(unit 1)
				)
			)
		)
	)
	(symbol
		(lib_id "JKHA-rescue:GNDREF-power")
		(at 129.54 36.83 0)
		(unit 1)
		(exclude_from_sim no)
		(in_bom yes)
		(on_board yes)
		(dnp no)
		(uuid "00000000-0000-0000-0000-00005f55b06f")
		(property "Reference" "#PWR?"
			(at 129.54 43.18 0)
			(effects
				(font
					(size 1.27 1.27)
				)
				(hide yes)
			)
		)
		(property "Value" "GNDREF"
			(at 129.667 41.2242 0)
			(effects
				(font
					(size 1.27 1.27)
				)
			)
		)
		(property "Footprint" ""
			(at 129.54 36.83 0)
			(effects
				(font
					(size 1.27 1.27)
				)
				(hide yes)
			)
		)
		(property "Datasheet" ""
			(at 129.54 36.83 0)
			(effects
				(font
					(size 1.27 1.27)
				)
				(hide yes)
			)
		)
		(property "Description" ""
			(at 129.54 36.83 0)
			(effects
				(font
					(size 1.27 1.27)
				)
				(hide yes)
			)
		)
		(pin "1"
			(uuid "631e30ca-6f21-43f8-8d79-6b3036b3f4b9")
		)
		(instances
			(project ""
				(path "/2885994b-2fd3-4618-a25f-f1974be1c28f"
					(reference "#PWR02")
					(unit 1)
				)
			)
		)
	)
	(symbol
		(lib_id "JKHA-rescue:CP1-Device")
		(at 115.57 29.21 0)
		(unit 1)
		(exclude_from_sim no)
		(in_bom yes)
		(on_board yes)
		(dnp no)
		(uuid "00000000-0000-0000-0000-00005f55b084")
		(property "Reference" "C?"
			(at 118.491 28.0416 0)
			(effects
				(font
					(size 1.27 1.27)
				)
				(justify left)
			)
		)
		(property "Value" "470u"
			(at 118.491 30.353 0)
			(effects
				(font
					(size 1.27 1.27)
				)
				(justify left)
			)
		)
		(property "Footprint" "Capacitor_THT:CP_Radial_D8.0mm_P5.00mm"
			(at 115.57 29.21 0)
			(effects
				(font
					(size 1.27 1.27)
				)
				(hide yes)
			)
		)
		(property "Datasheet" "~"
			(at 115.57 29.21 0)
			(effects
				(font
					(size 1.27 1.27)
				)
				(hide yes)
			)
		)
		(property "Description" ""
			(at 115.57 29.21 0)
			(effects
				(font
					(size 1.27 1.27)
				)
				(hide yes)
			)
		)
		(pin "1"
			(uuid "4e45b4c4-3973-4a8d-9b0a-d20ea7e08ab6")
		)
		(pin "2"
			(uuid "e403eba9-b1af-4445-9407-cb0d850b9a58")
		)
		(instances
			(project ""
				(path "/2885994b-2fd3-4618-a25f-f1974be1c28f"
					(reference "C3")
					(unit 1)
				)
			)
		)
	)
	(symbol
		(lib_id "JKHA-rescue:CP1-Device")
		(at 115.57 40.64 0)
		(unit 1)
		(exclude_from_sim no)
		(in_bom yes)
		(on_board yes)
		(dnp no)
		(uuid "00000000-0000-0000-0000-00005f55b08a")
		(property "Reference" "C?"
			(at 118.491 39.4716 0)
			(effects
				(font
					(size 1.27 1.27)
				)
				(justify left)
			)
		)
		(property "Value" "470u"
			(at 118.491 41.783 0)
			(effects
				(font
					(size 1.27 1.27)
				)
				(justify left)
			)
		)
		(property "Footprint" "Capacitor_THT:CP_Radial_D8.0mm_P5.00mm"
			(at 115.57 40.64 0)
			(effects
				(font
					(size 1.27 1.27)
				)
				(hide yes)
			)
		)
		(property "Datasheet" "~"
			(at 115.57 40.64 0)
			(effects
				(font
					(size 1.27 1.27)
				)
				(hide yes)
			)
		)
		(property "Description" ""
			(at 115.57 40.64 0)
			(effects
				(font
					(size 1.27 1.27)
				)
				(hide yes)
			)
		)
		(pin "2"
			(uuid "ac39b84d-e323-4604-b7b7-622837acebc6")
		)
		(pin "1"
			(uuid "557f132a-2ff3-409b-8ef6-76f44733c650")
		)
		(instances
			(project ""
				(path "/2885994b-2fd3-4618-a25f-f1974be1c28f"
					(reference "C4")
					(unit 1)
				)
			)
		)
	)
	(symbol
		(lib_id "Amplifier_Operational:OPA2134")
		(at 124.46 86.36 0)
		(unit 1)
		(exclude_from_sim no)
		(in_bom yes)
		(on_board yes)
		(dnp no)
		(uuid "00000000-0000-0000-0000-00005f570669")
		(property "Reference" "U?"
			(at 124.46 77.0382 0)
			(effects
				(font
					(size 1.27 1.27)
				)
			)
		)
		(property "Value" "OPA2134"
			(at 124.46 79.3496 0)
			(effects
				(font
					(size 1.27 1.27)
				)
			)
		)
		(property "Footprint" "Package_DIP:DIP-8_W7.62mm_LongPads"
			(at 124.46 86.36 0)
			(effects
				(font
					(size 1.27 1.27)
				)
				(hide yes)
			)
		)
		(property "Datasheet" "http://www.ti.com/lit/ds/symlink/opa134.pdf"
			(at 124.46 86.36 0)
			(effects
				(font
					(size 1.27 1.27)
				)
				(hide yes)
			)
		)
		(property "Description" ""
			(at 124.46 86.36 0)
			(effects
				(font
					(size 1.27 1.27)
				)
				(hide yes)
			)
		)
		(pin "3"
			(uuid "73668fdb-91fc-492e-a9d9-a2276819e6ca")
		)
		(pin "8"
			(uuid "2dd828eb-392b-4b73-b714-0a41f3ca3c40")
		)
		(pin "1"
			(uuid "f16898c6-5b92-4a75-88ec-0ec0542e0448")
		)
		(pin "2"
			(uuid "08d5edb5-45fb-4d6f-86f7-7160a7c195db")
		)
		(pin "6"
			(uuid "2829c534-cfdd-4664-a5c4-70928d5bde52")
		)
		(pin "5"
			(uuid "a6d631d4-9663-4200-aca8-86ac072e0c44")
		)
		(pin "4"
			(uuid "b84e69e4-cead-4ebc-be9c-76386e8283bd")
		)
		(pin "7"
			(uuid "20031a8c-58d0-4c9c-ad1f-cd2d045972fa")
		)
		(instances
			(project ""
				(path "/2885994b-2fd3-4618-a25f-f1974be1c28f"
					(reference "U2")
					(unit 1)
				)
			)
		)
	)
	(symbol
		(lib_id "JKHA-rescue:GNDREF-power")
		(at 97.79 100.33 0)
		(unit 1)
		(exclude_from_sim no)
		(in_bom yes)
		(on_board yes)
		(dnp no)
		(uuid "00000000-0000-0000-0000-00005f570671")
		(property "Reference" "#PWR?"
			(at 97.79 106.68 0)
			(effects
				(font
					(size 1.27 1.27)
				)
				(hide yes)
			)
		)
		(property "Value" "GNDREF"
			(at 97.917 104.7242 0)
			(effects
				(font
					(size 1.27 1.27)
				)
			)
		)
		(property "Footprint" ""
			(at 97.79 100.33 0)
			(effects
				(font
					(size 1.27 1.27)
				)
				(hide yes)
			)
		)
		(property "Datasheet" ""
			(at 97.79 100.33 0)
			(effects
				(font
					(size 1.27 1.27)
				)
				(hide yes)
			)
		)
		(property "Description" ""
			(at 97.79 100.33 0)
			(effects
				(font
					(size 1.27 1.27)
				)
				(hide yes)
			)
		)
		(pin "1"
			(uuid "35cac66a-27d0-4e4b-b5c2-feb9120424d4")
		)
		(instances
			(project ""
				(path "/2885994b-2fd3-4618-a25f-f1974be1c28f"
					(reference "#PWR05")
					(unit 1)
				)
			)
		)
	)
	(symbol
		(lib_id "Device:C")
		(at 88.9 129.54 270)
		(unit 1)
		(exclude_from_sim no)
		(in_bom yes)
		(on_board yes)
		(dnp no)
		(uuid "00000000-0000-0000-0000-00005f57067b")
		(property "Reference" "C?"
			(at 90.0684 132.461 0)
			(effects
				(font
					(size 1.27 1.27)
				)
				(justify left)
			)
		)
		(property "Value" "1u"
			(at 87.757 132.461 0)
			(effects
				(font
					(size 1.27 1.27)
				)
				(justify left)
			)
		)
		(property "Footprint" "Capacitor_SMD:C_1206_3216Metric_Pad1.42x1.75mm_HandSolder"
			(at 85.09 130.5052 0)
			(effects
				(font
					(size 1.27 1.27)
				)
				(hide yes)
			)
		)
		(property "Datasheet" "~"
			(at 88.9 129.54 0)
			(effects
				(font
					(size 1.27 1.27)
				)
				(hide yes)
			)
		)
		(property "Description" ""
			(at 88.9 129.54 0)
			(effects
				(font
					(size 1.27 1.27)
				)
				(hide yes)
			)
		)
		(pin "2"
			(uuid "fbc883d3-0612-4635-967b-2fed4ff9bb15")
		)
		(pin "1"
			(uuid "1c8d8e3d-1f42-4551-b727-766d16a2df46")
		)
		(instances
			(project ""
				(path "/2885994b-2fd3-4618-a25f-f1974be1c28f"
					(reference "C7")
					(unit 1)
				)
			)
		)
	)
	(symbol
		(lib_id "Device:R")
		(at 97.79 135.89 0)
		(unit 1)
		(exclude_from_sim no)
		(in_bom yes)
		(on_board yes)
		(dnp no)
		(uuid "00000000-0000-0000-0000-00005f570681")
		(property "Reference" "R?"
			(at 99.568 134.7216 0)
			(effects
				(font
					(size 1.27 1.27)
				)
				(justify left)
			)
		)
		(property "Value" "100k"
			(at 99.568 137.033 0)
			(effects
				(font
					(size 1.27 1.27)
				)
				(justify left)
			)
		)
		(property "Footprint" "Resistor_SMD:R_1206_3216Metric_Pad1.42x1.75mm_HandSolder"
			(at 96.012 135.89 90)
			(effects
				(font
					(size 1.27 1.27)
				)
				(hide yes)
			)
		)
		(property "Datasheet" "~"
			(at 97.79 135.89 0)
			(effects
				(font
					(size 1.27 1.27)
				)
				(hide yes)
			)
		)
		(property "Description" ""
			(at 97.79 135.89 0)
			(effects
				(font
					(size 1.27 1.27)
				)
				(hide yes)
			)
		)
		(pin "2"
			(uuid "bfc5e683-a554-4d3a-a7b3-1f3b2583b164")
		)
		(pin "1"
			(uuid "3d8974c9-e92c-413e-aa40-1da1c2717b60")
		)
		(instances
			(project ""
				(path "/2885994b-2fd3-4618-a25f-f1974be1c28f"
					(reference "R7")
					(unit 1)
				)
			)
		)
	)
	(symbol
		(lib_id "Amplifier_Operational:OPA2134")
		(at 123.19 132.08 0)
		(unit 2)
		(exclude_from_sim no)
		(in_bom yes)
		(on_board yes)
		(dnp no)
		(uuid "00000000-0000-0000-0000-00005f570687")
		(property "Reference" "U?"
			(at 123.19 122.7582 0)
			(effects
				(font
					(size 1.27 1.27)
				)
			)
		)
		(property "Value" "OPA2134"
			(at 123.19 125.0696 0)
			(effects
				(font
					(size 1.27 1.27)
				)
			)
		)
		(property "Footprint" "Package_DIP:DIP-8_W7.62mm_LongPads"
			(at 123.19 132.08 0)
			(effects
				(font
					(size 1.27 1.27)
				)
				(hide yes)
			)
		)
		(property "Datasheet" "http://www.ti.com/lit/ds/symlink/opa134.pdf"
			(at 123.19 132.08 0)
			(effects
				(font
					(size 1.27 1.27)
				)
				(hide yes)
			)
		)
		(property "Description" ""
			(at 123.19 132.08 0)
			(effects
				(font
					(size 1.27 1.27)
				)
				(hide yes)
			)
		)
		(pin "1"
			(uuid "5607ce28-1904-40dc-a95a-5820fcdfd2db")
		)
		(pin "3"
			(uuid "506fdd7c-df04-4257-b59e-73f3479e60c3")
		)
		(pin "5"
			(uuid "8e598898-9c67-414f-8549-10229af9fb61")
		)
		(pin "2"
			(uuid "d800a29c-6ae3-4d12-95e4-546b63259c20")
		)
		(pin "7"
			(uuid "3f9363d8-30ba-43f1-bcc3-98bce79573a2")
		)
		(pin "6"
			(uuid "24ae7c47-3745-42ba-b95c-3683d6325eea")
		)
		(pin "4"
			(uuid "950787ca-98c5-48f0-9a3e-11ceec41ff73")
		)
		(pin "8"
			(uuid "8fd93a26-8eb5-4bc8-9925-b5904ff5c1e7")
		)
		(instances
			(project ""
				(path "/2885994b-2fd3-4618-a25f-f1974be1c28f"
					(reference "U2")
					(unit 2)
				)
			)
		)
	)
	(symbol
		(lib_id "JKHA-rescue:GNDREF-power")
		(at 97.79 147.32 0)
		(unit 1)
		(exclude_from_sim no)
		(in_bom yes)
		(on_board yes)
		(dnp no)
		(uuid "00000000-0000-0000-0000-00005f570690")
		(property "Reference" "#PWR?"
			(at 97.79 153.67 0)
			(effects
				(font
					(size 1.27 1.27)
				)
				(hide yes)
			)
		)
		(property "Value" "GNDREF"
			(at 97.917 151.7142 0)
			(effects
				(font
					(size 1.27 1.27)
				)
			)
		)
		(property "Footprint" ""
			(at 97.79 147.32 0)
			(effects
				(font
					(size 1.27 1.27)
				)
				(hide yes)
			)
		)
		(property "Datasheet" ""
			(at 97.79 147.32 0)
			(effects
				(font
					(size 1.27 1.27)
				)
				(hide yes)
			)
		)
		(property "Description" ""
			(at 97.79 147.32 0)
			(effects
				(font
					(size 1.27 1.27)
				)
				(hide yes)
			)
		)
		(pin "1"
			(uuid "5d482841-c7c7-4b26-8236-0bde480bd382")
		)
		(instances
			(project ""
				(path "/2885994b-2fd3-4618-a25f-f1974be1c28f"
					(reference "#PWR06")
					(unit 1)
				)
			)
		)
	)
	(symbol
		(lib_id "JKHA-rescue:AudioJack3-Connector")
		(at 49.53 78.74 0)
		(mirror x)
		(unit 1)
		(exclude_from_sim no)
		(in_bom yes)
		(on_board yes)
		(dnp no)
		(uuid "00000000-0000-0000-0000-00005f57069d")
		(property "Reference" "J?"
			(at 49.0728 86.995 0)
			(effects
				(font
					(size 1.27 1.27)
				)
			)
		)
		(property "Value" "LineIn"
			(at 49.0728 84.6836 0)
			(effects
				(font
					(size 1.27 1.27)
				)
			)
		)
		(property "Footprint" "Connector_Audio:Jack_3.5mm_CUI_SJ1-3533NG_Horizontal"
			(at 49.53 78.74 0)
			(effects
				(font
					(size 1.27 1.27)
				)
				(hide yes)
			)
		)
		(property "Datasheet" "~"
			(at 49.53 78.74 0)
			(effects
				(font
					(size 1.27 1.27)
				)
				(hide yes)
			)
		)
		(property "Description" ""
			(at 49.53 78.74 0)
			(effects
				(font
					(size 1.27 1.27)
				)
				(hide yes)
			)
		)
		(pin "R"
			(uuid "a1ee4b0a-7084-4136-8f5a-bb4ba7d89ee2")
		)
		(pin "T"
			(uuid "5c4a00a6-c2c9-403c-b6a5-0a579d7f0fa2")
		)
		(pin "S"
			(uuid "31b6e7df-a195-4373-8020-86677518d96d")
		)
		(instances
			(project ""
				(path "/2885994b-2fd3-4618-a25f-f1974be1c28f"
					(reference "J3")
					(unit 1)
				)
			)
		)
	)
	(symbol
		(lib_id "JKHA-rescue:R_POT_Dual_Separate-Device")
		(at 80.01 83.82 0)
		(mirror x)
		(unit 1)
		(exclude_from_sim no)
		(in_bom yes)
		(on_board yes)
		(dnp no)
		(uuid "00000000-0000-0000-0000-00005f5706a3")
		(property "Reference" "RV?"
			(at 78.232 84.9884 0)
			(effects
				(font
					(size 1.27 1.27)
				)
				(justify right)
			)
		)
		(property "Value" "VOL"
			(at 78.232 82.677 0)
			(effects
				(font
					(size 1.27 1.27)
				)
				(justify right)
			)
		)
		(property "Footprint" "Potentiometer_THT:Potentiometer_Alps_RK097_Dual_Horizontal"
			(at 80.01 83.82 0)
			(effects
				(font
					(size 1.27 1.27)
				)
				(hide yes)
			)
		)
		(property "Datasheet" "~"
			(at 80.01 83.82 0)
			(effects
				(font
					(size 1.27 1.27)
				)
				(hide yes)
			)
		)
		(property "Description" ""
			(at 80.01 83.82 0)
			(effects
				(font
					(size 1.27 1.27)
				)
				(hide yes)
			)
		)
		(pin "4"
			(uuid "062e38eb-2732-477a-9510-dccbc8c13895")
		)
		(pin "1"
			(uuid "290797ca-4911-4b97-9ed4-9d2a02d3a442")
		)
		(pin "6"
			(uuid "5df720f6-5785-49d5-899b-3ab9e7630ce0")
		)
		(pin "2"
			(uuid "a755382f-89ed-4168-9188-ddfbba6c29bd")
		)
		(pin "5"
			(uuid "2c5e2881-f544-4535-89fe-b669be1c0598")
		)
		(pin "3"
			(uuid "a16c14b3-3a4c-4092-a277-69a7475f4ed0")
		)
		(instances
			(project ""
				(path "/2885994b-2fd3-4618-a25f-f1974be1c28f"
					(reference "RV1")
					(unit 1)
				)
			)
		)
	)
	(symbol
		(lib_id "JKHA-rescue:R_POT_Dual_Separate-Device")
		(at 66.04 129.54 0)
		(mirror x)
		(unit 2)
		(exclude_from_sim no)
		(in_bom yes)
		(on_board yes)
		(dnp no)
		(uuid "00000000-0000-0000-0000-00005f5706a9")
		(property "Reference" "RV?"
			(at 64.262 130.7084 0)
			(effects
				(font
					(size 1.27 1.27)
				)
				(justify right)
			)
		)
		(property "Value" "VOL"
			(at 64.262 128.397 0)
			(effects
				(font
					(size 1.27 1.27)
				)
				(justify right)
			)
		)
		(property "Footprint" "Potentiometer_THT:Potentiometer_Alps_RK097_Dual_Horizontal"
			(at 66.04 129.54 0)
			(effects
				(font
					(size 1.27 1.27)
				)
				(hide yes)
			)
		)
		(property "Datasheet" "~"
			(at 66.04 129.54 0)
			(effects
				(font
					(size 1.27 1.27)
				)
				(hide yes)
			)
		)
		(property "Description" ""
			(at 66.04 129.54 0)
			(effects
				(font
					(size 1.27 1.27)
				)
				(hide yes)
			)
		)
		(pin "5"
			(uuid "b43138fa-40b1-4264-9aec-72eedd178a1f")
		)
		(pin "2"
			(uuid "9ad96be6-5cfb-4803-9da7-7640cd72dc64")
		)
		(pin "4"
			(uuid "a7450b60-c696-4ded-90d6-f4990ef35bf0")
		)
		(pin "6"
			(uuid "43bb8f79-aa6c-411f-92ea-26265a39d9b8")
		)
		(pin "1"
			(uuid "65415b5f-c733-4900-80b0-57b5051800b8")
		)
		(pin "3"
			(uuid "0eebde90-6643-49a3-be84-1e8fdb274cb3")
		)
		(instances
			(project ""
				(path "/2885994b-2fd3-4618-a25f-f1974be1c28f"
					(reference "RV1")
					(unit 2)
				)
			)
		)
	)
	(symbol
		(lib_id "Device:R")
		(at 106.68 99.06 270)
		(unit 1)
		(exclude_from_sim no)
		(in_bom yes)
		(on_board yes)
		(dnp no)
		(uuid "00000000-0000-0000-0000-00005f5706c3")
		(property "Reference" "R?"
			(at 107.8484 100.838 0)
			(effects
				(font
					(size 1.27 1.27)
				)
				(justify left)
			)
		)
		(property "Value" "1k"
			(at 105.537 100.838 0)
			(effects
				(font
					(size 1.27 1.27)
				)
				(justify left)
			)
		)
		(property "Footprint" "Resistor_SMD:R_1206_3216Metric_Pad1.42x1.75mm_HandSolder"
			(at 106.68 97.282 90)
			(effects
				(font
					(size 1.27 1.27)
				)
				(hide yes)
			)
		)
		(property "Datasheet" "~"
			(at 106.68 99.06 0)
			(effects
				(font
					(size 1.27 1.27)
				)
				(hide yes)
			)
		)
		(property "Description" ""
			(at 106.68 99.06 0)
			(effects
				(font
					(size 1.27 1.27)
				)
				(hide yes)
			)
		)
		(pin "1"
			(uuid "c1a238cb-cf27-4953-bcd6-7d22103fa34c")
		)
		(pin "2"
			(uuid "f862e85c-0c3c-4516-a460-9a8edaa25aab")
		)
		(instances
			(project ""
				(path "/2885994b-2fd3-4618-a25f-f1974be1c28f"
					(reference "R5")
					(unit 1)
				)
			)
		)
	)
	(symbol
		(lib_id "Device:R")
		(at 130.81 99.06 270)
		(unit 1)
		(exclude_from_sim no)
		(in_bom yes)
		(on_board yes)
		(dnp no)
		(uuid "00000000-0000-0000-0000-00005f5706c9")
		(property "Reference" "R?"
			(at 131.9784 100.838 0)
			(effects
				(font
					(size 1.27 1.27)
				)
				(justify left)
			)
		)
		(property "Value" "4.7k"
			(at 129.667 100.838 0)
			(effects
				(font
					(size 1.27 1.27)
				)
				(justify left)
			)
		)
		(property "Footprint" "Resistor_SMD:R_1206_3216Metric_Pad1.42x1.75mm_HandSolder"
			(at 130.81 97.282 90)
			(effects
				(font
					(size 1.27 1.27)
				)
				(hide yes)
			)
		)
		(property "Datasheet" "~"
			(at 130.81 99.06 0)
			(effects
				(font
					(size 1.27 1.27)
				)
				(hide yes)
			)
		)
		(property "Description" ""
			(at 130.81 99.06 0)
			(effects
				(font
					(size 1.27 1.27)
				)
				(hide yes)
			)
		)
		(pin "2"
			(uuid "c1a079ab-7893-422c-89cb-111f47e0febf")
		)
		(pin "1"
			(uuid "913d3ea0-7943-41b3-8539-57ae81ac5123")
		)
		(instances
			(project ""
				(path "/2885994b-2fd3-4618-a25f-f1974be1c28f"
					(reference "R6")
					(unit 1)
				)
			)
		)
	)
	(symbol
		(lib_id "Device:R")
		(at 105.41 144.78 270)
		(unit 1)
		(exclude_from_sim no)
		(in_bom yes)
		(on_board yes)
		(dnp no)
		(uuid "00000000-0000-0000-0000-00005f5706d7")
		(property "Reference" "R?"
			(at 106.5784 146.558 0)
			(effects
				(font
					(size 1.27 1.27)
				)
				(justify left)
			)
		)
		(property "Value" "1k"
			(at 104.267 146.558 0)
			(effects
				(font
					(size 1.27 1.27)
				)
				(justify left)
			)
		)
		(property "Footprint" "Resistor_SMD:R_1206_3216Metric_Pad1.42x1.75mm_HandSolder"
			(at 105.41 143.002 90)
			(effects
				(font
					(size 1.27 1.27)
				)
				(hide yes)
			)
		)
		(property "Datasheet" "~"
			(at 105.41 144.78 0)
			(effects
				(font
					(size 1.27 1.27)
				)
				(hide yes)
			)
		)
		(property "Description" ""
			(at 105.41 144.78 0)
			(effects
				(font
					(size 1.27 1.27)
				)
				(hide yes)
			)
		)
		(pin "1"
			(uuid "9a6052b5-67ac-4c4f-a5cf-4f3f8a5da8e1")
		)
		(pin "2"
			(uuid "a445ac83-25de-445e-9c32-59110343980c")
		)
		(instances
			(project ""
				(path "/2885994b-2fd3-4618-a25f-f1974be1c28f"
					(reference "R8")
					(unit 1)
				)
			)
		)
	)
	(symbol
		(lib_id "Device:R")
		(at 130.81 144.78 270)
		(unit 1)
		(exclude_from_sim no)
		(in_bom yes)
		(on_board yes)
		(dnp no)
		(uuid "00000000-0000-0000-0000-00005f5706dd")
		(property "Reference" "R?"
			(at 131.9784 146.558 0)
			(effects
				(font
					(size 1.27 1.27)
				)
				(justify left)
			)
		)
		(property "Value" "4.7k"
			(at 129.667 146.558 0)
			(effects
				(font
					(size 1.27 1.27)
				)
				(justify left)
			)
		)
		(property "Footprint" "Resistor_SMD:R_1206_3216Metric_Pad1.42x1.75mm_HandSolder"
			(at 130.81 143.002 90)
			(effects
				(font
					(size 1.27 1.27)
				)
				(hide yes)
			)
		)
		(property "Datasheet" "~"
			(at 130.81 144.78 0)
			(effects
				(font
					(size 1.27 1.27)
				)
				(hide yes)
			)
		)
		(property "Description" ""
			(at 130.81 144.78 0)
			(effects
				(font
					(size 1.27 1.27)
				)
				(hide yes)
			)
		)
		(pin "2"
			(uuid "4dcb1ee9-decf-4633-9f10-3a7acbc48790")
		)
		(pin "1"
			(uuid "ab23bd32-1a86-4154-8930-dc0fb3e83a42")
		)
		(instances
			(project ""
				(path "/2885994b-2fd3-4618-a25f-f1974be1c28f"
					(reference "R9")
					(unit 1)
				)
			)
		)
	)
	(symbol
		(lib_id "Device:R")
		(at 97.79 90.17 0)
		(unit 1)
		(exclude_from_sim no)
		(in_bom yes)
		(on_board yes)
		(dnp no)
		(uuid "00000000-0000-0000-0000-00005f5706f0")
		(property "Reference" "R?"
			(at 99.568 89.0016 0)
			(effects
				(font
					(size 1.27 1.27)
				)
				(justify left)
			)
		)
		(property "Value" "100k"
			(at 99.568 91.313 0)
			(effects
				(font
					(size 1.27 1.27)
				)
				(justify left)
			)
		)
		(property "Footprint" "Resistor_SMD:R_1206_3216Metric_Pad1.42x1.75mm_HandSolder"
			(at 96.012 90.17 90)
			(effects
				(font
					(size 1.27 1.27)
				)
				(hide yes)
			)
		)
		(property "Datasheet" "~"
			(at 97.79 90.17 0)
			(effects
				(font
					(size 1.27 1.27)
				)
				(hide yes)
			)
		)
		(property "Description" ""
			(at 97.79 90.17 0)
			(effects
				(font
					(size 1.27 1.27)
				)
				(hide yes)
			)
		)
		(pin "1"
			(uuid "48b49733-883b-4d28-9e8f-7c0fd8424880")
		)
		(pin "2"
			(uuid "16186ab5-dc8e-43dd-93e7-8d77bdb1f1ba")
		)
		(instances
			(project ""
				(path "/2885994b-2fd3-4618-a25f-f1974be1c28f"
					(reference "R4")
					(unit 1)
				)
			)
		)
	)
	(symbol
		(lib_id "Device:C")
		(at 88.9 83.82 270)
		(unit 1)
		(exclude_from_sim no)
		(in_bom yes)
		(on_board yes)
		(dnp no)
		(uuid "00000000-0000-0000-0000-00005f5706f6")
		(property "Reference" "C?"
			(at 90.0684 86.741 0)
			(effects
				(font
					(size 1.27 1.27)
				)
				(justify left)
			)
		)
		(property "Value" "1u"
			(at 87.757 86.741 0)
			(effects
				(font
					(size 1.27 1.27)
				)
				(justify left)
			)
		)
		(property "Footprint" "Capacitor_SMD:C_1206_3216Metric_Pad1.42x1.75mm_HandSolder"
			(at 85.09 84.7852 0)
			(effects
				(font
					(size 1.27 1.27)
				)
				(hide yes)
			)
		)
		(property "Datasheet" "~"
			(at 88.9 83.82 0)
			(effects
				(font
					(size 1.27 1.27)
				)
				(hide yes)
			)
		)
		(property "Description" ""
			(at 88.9 83.82 0)
			(effects
				(font
					(size 1.27 1.27)
				)
				(hide yes)
			)
		)
		(pin "1"
			(uuid "da301211-1a7d-47c3-b571-b928e4e52db9")
		)
		(pin "2"
			(uuid "2cf25247-0848-43bc-9529-b5eaf727276b")
		)
		(instances
			(project ""
				(path "/2885994b-2fd3-4618-a25f-f1974be1c28f"
					(reference "C5")
					(unit 1)
				)
			)
		)
	)
	(symbol
		(lib_id "Device:C")
		(at 130.81 110.49 270)
		(unit 1)
		(exclude_from_sim no)
		(in_bom yes)
		(on_board yes)
		(dnp no)
		(uuid "00000000-0000-0000-0000-00005f57adea")
		(property "Reference" "C?"
			(at 131.9784 113.411 0)
			(effects
				(font
					(size 1.27 1.27)
				)
				(justify left)
			)
		)
		(property "Value" "1u"
			(at 129.667 113.411 0)
			(effects
				(font
					(size 1.27 1.27)
				)
				(justify left)
			)
		)
		(property "Footprint" "Capacitor_SMD:C_1206_3216Metric_Pad1.42x1.75mm_HandSolder"
			(at 127 111.4552 0)
			(effects
				(font
					(size 1.27 1.27)
				)
				(hide yes)
			)
		)
		(property "Datasheet" "~"
			(at 130.81 110.49 0)
			(effects
				(font
					(size 1.27 1.27)
				)
				(hide yes)
			)
		)
		(property "Description" ""
			(at 130.81 110.49 0)
			(effects
				(font
					(size 1.27 1.27)
				)
				(hide yes)
			)
		)
		(pin "1"
			(uuid "480eeb39-9932-4d19-9c64-88d6682e4f34")
		)
		(pin "2"
			(uuid "5fbf0ed3-6f65-4e3f-9b48-9d0f08fcabce")
		)
		(instances
			(project ""
				(path "/2885994b-2fd3-4618-a25f-f1974be1c28f"
					(reference "C6")
					(unit 1)
				)
			)
		)
	)
	(symbol
		(lib_id "JKHA-rescue:R_POT_Dual_Separate-Device")
		(at 115.57 110.49 270)
		(mirror x)
		(unit 1)
		(exclude_from_sim no)
		(in_bom yes)
		(on_board yes)
		(dnp no)
		(uuid "00000000-0000-0000-0000-00005f57adfc")
		(property "Reference" "RV?"
			(at 116.7384 112.268 0)
			(effects
				(font
					(size 1.27 1.27)
				)
				(justify right)
			)
		)
		(property "Value" "TREB"
			(at 114.427 112.268 0)
			(effects
				(font
					(size 1.27 1.27)
				)
				(justify right)
			)
		)
		(property "Footprint" "Potentiometer_THT:Potentiometer_Alps_RK097_Dual_Horizontal"
			(at 115.57 110.49 0)
			(effects
				(font
					(size 1.27 1.27)
				)
				(hide yes)
			)
		)
		(property "Datasheet" "~"
			(at 115.57 110.49 0)
			(effects
				(font
					(size 1.27 1.27)
				)
				(hide yes)
			)
		)
		(property "Description" ""
			(at 115.57 110.49 0)
			(effects
				(font
					(size 1.27 1.27)
				)
				(hide yes)
			)
		)
		(pin "1"
			(uuid "a9217b2b-0de8-4fe0-abe3-0f57f0b907e7")
		)
		(pin "4"
			(uuid "63ebd74c-d18a-4864-a2ad-7316bee0d397")
		)
		(pin "5"
			(uuid "104f80f6-24c6-40cb-b170-a860cae820ab")
		)
		(pin "2"
			(uuid "81026d48-d688-45bb-b96a-f6dad4de0a2d")
		)
		(pin "6"
			(uuid "c84c322b-7a60-47df-9f17-15a34c2c02ab")
		)
		(pin "3"
			(uuid "7e88f4ee-eee5-4d90-a68c-9fe32d225b1c")
		)
		(instances
			(project ""
				(path "/2885994b-2fd3-4618-a25f-f1974be1c28f"
					(reference "RV2")
					(unit 1)
				)
			)
		)
	)
	(symbol
		(lib_id "JKHA-rescue:R_POT_Dual_Separate-Device")
		(at 114.3 154.94 270)
		(mirror x)
		(unit 2)
		(exclude_from_sim no)
		(in_bom yes)
		(on_board yes)
		(dnp no)
		(uuid "00000000-0000-0000-0000-00005f57ae15")
		(property "Reference" "RV?"
			(at 115.4684 156.718 0)
			(effects
				(font
					(size 1.27 1.27)
				)
				(justify right)
			)
		)
		(property "Value" "TREB"
			(at 113.157 156.718 0)
			(effects
				(font
					(size 1.27 1.27)
				)
				(justify right)
			)
		)
		(property "Footprint" "Potentiometer_THT:Potentiometer_Alps_RK097_Dual_Horizontal"
			(at 114.3 154.94 0)
			(effects
				(font
					(size 1.27 1.27)
				)
				(hide yes)
			)
		)
		(property "Datasheet" "~"
			(at 114.3 154.94 0)
			(effects
				(font
					(size 1.27 1.27)
				)
				(hide yes)
			)
		)
		(property "Description" ""
			(at 114.3 154.94 0)
			(effects
				(font
					(size 1.27 1.27)
				)
				(hide yes)
			)
		)
		(pin "2"
			(uuid "d128e816-832c-430e-8620-f7651b3fe184")
		)
		(pin "5"
			(uuid "6cb30c2d-e298-4618-b1fc-61ad0e37a273")
		)
		(pin "4"
			(uuid "3502d50f-ba34-4706-91b2-d4c6d1bae2d9")
		)
		(pin "3"
			(uuid "7b73fb36-2d77-4bdf-8047-9251ee2e95f1")
		)
		(pin "1"
			(uuid "d1578a77-77d9-4e3c-a550-97684334c3d2")
		)
		(pin "6"
			(uuid "089a7365-482d-40e8-a04b-51fe70272789")
		)
		(instances
			(project ""
				(path "/2885994b-2fd3-4618-a25f-f1974be1c28f"
					(reference "RV2")
					(unit 2)
				)
			)
		)
	)
	(symbol
		(lib_id "Device:C")
		(at 130.81 154.94 270)
		(unit 1)
		(exclude_from_sim no)
		(in_bom yes)
		(on_board yes)
		(dnp no)
		(uuid "00000000-0000-0000-0000-00005f57ae25")
		(property "Reference" "C?"
			(at 131.9784 157.861 0)
			(effects
				(font
					(size 1.27 1.27)
				)
				(justify left)
			)
		)
		(property "Value" "1u"
			(at 129.667 157.861 0)
			(effects
				(font
					(size 1.27 1.27)
				)
				(justify left)
			)
		)
		(property "Footprint" "Capacitor_SMD:C_1206_3216Metric_Pad1.42x1.75mm_HandSolder"
			(at 127 155.9052 0)
			(effects
				(font
					(size 1.27 1.27)
				)
				(hide yes)
			)
		)
		(property "Datasheet" "~"
			(at 130.81 154.94 0)
			(effects
				(font
					(size 1.27 1.27)
				)
				(hide yes)
			)
		)
		(property "Description" ""
			(at 130.81 154.94 0)
			(effects
				(font
					(size 1.27 1.27)
				)
				(hide yes)
			)
		)
		(pin "2"
			(uuid "4de3c1d3-c82b-43a0-9998-25508ffbcfda")
		)
		(pin "1"
			(uuid "4a124a15-2368-4e79-ba6d-d9653dc5e44d")
		)
		(instances
			(project ""
				(path "/2885994b-2fd3-4618-a25f-f1974be1c28f"
					(reference "C8")
					(unit 1)
				)
			)
		)
	)
	(symbol
		(lib_id "JKHA-rescue:AudioJack3-Connector")
		(at 165.1 88.9 180)
		(unit 1)
		(exclude_from_sim no)
		(in_bom yes)
		(on_board yes)
		(dnp no)
		(uuid "00000000-0000-0000-0000-00005f587172")
		(property "Reference" "J?"
			(at 172.212 89.535 0)
			(effects
				(font
					(size 1.27 1.27)
				)
				(justify right)
			)
		)
		(property "Value" "LineOut"
			(at 172.212 87.2236 0)
			(effects
				(font
					(size 1.27 1.27)
				)
				(justify right)
			)
		)
		(property "Footprint" "Connector_Audio:Jack_3.5mm_CUI_SJ1-3533NG_Horizontal"
			(at 165.1 88.9 0)
			(effects
				(font
					(size 1.27 1.27)
				)
				(hide yes)
			)
		)
		(property "Datasheet" "~"
			(at 165.1 88.9 0)
			(effects
				(font
					(size 1.27 1.27)
				)
				(hide yes)
			)
		)
		(property "Description" ""
			(at 165.1 88.9 0)
			(effects
				(font
					(size 1.27 1.27)
				)
				(hide yes)
			)
		)
		(pin "T"
			(uuid "ea1a3f81-008a-4d6e-b44f-d14100181cce")
		)
		(pin "S"
			(uuid "53e03164-a061-4b80-bf91-bbab57c1c56f")
		)
		(pin "R"
			(uuid "9fc1be82-1e0b-42fd-811f-a94409a47df9")
		)
		(instances
			(project ""
				(path "/2885994b-2fd3-4618-a25f-f1974be1c28f"
					(reference "J4")
					(unit 1)
				)
			)
		)
	)
	(symbol
		(lib_id "Connector:Screw_Terminal_01x02")
		(at 26.67 22.86 0)
		(mirror y)
		(unit 1)
		(exclude_from_sim no)
		(in_bom yes)
		(on_board yes)
		(dnp no)
		(uuid "00000000-0000-0000-0000-00005f7ace4a")
		(property "Reference" "J1"
			(at 28.7528 17.3482 0)
			(effects
				(font
					(size 1.27 1.27)
				)
			)
		)
		(property "Value" "Screw_Terminal"
			(at 28.7528 19.6596 0)
			(effects
				(font
					(size 1.27 1.27)
				)
			)
		)
		(property "Footprint" "TerminalBlock_Phoenix:TerminalBlock_Phoenix_MKDS-1,5-2_1x02_P5.00mm_Horizontal"
			(at 26.67 22.86 0)
			(effects
				(font
					(size 1.27 1.27)
				)
				(hide yes)
			)
		)
		(property "Datasheet" "~"
			(at 26.67 22.86 0)
			(effects
				(font
					(size 1.27 1.27)
				)
				(hide yes)
			)
		)
		(property "Description" ""
			(at 26.67 22.86 0)
			(effects
				(font
					(size 1.27 1.27)
				)
				(hide yes)
			)
		)
		(pin "2"
			(uuid "bd251961-f527-41c0-a8cf-ab186fbdcf61")
		)
		(pin "1"
			(uuid "f5bb1a2d-87eb-4e55-9743-2b8231396b91")
		)
		(instances
			(project ""
				(path "/2885994b-2fd3-4618-a25f-f1974be1c28f"
					(reference "J1")
					(unit 1)
				)
			)
		)
	)
	(symbol
		(lib_id "Connector:Screw_Terminal_01x02")
		(at 78.74 36.83 0)
		(mirror y)
		(unit 1)
		(exclude_from_sim no)
		(in_bom yes)
		(on_board yes)
		(dnp no)
		(uuid "00000000-0000-0000-0000-00005f7b4a84")
		(property "Reference" "J2"
			(at 80.8228 31.3182 0)
			(effects
				(font
					(size 1.27 1.27)
				)
			)
		)
		(property "Value" "LED_Screw_Terminal"
			(at 80.8228 33.6296 0)
			(effects
				(font
					(size 1.27 1.27)
				)
			)
		)
		(property "Footprint" "TerminalBlock_Phoenix:TerminalBlock_Phoenix_MKDS-1,5-2_1x02_P5.00mm_Horizontal"
			(at 78.74 36.83 0)
			(effects
				(font
					(size 1.27 1.27)
				)
				(hide yes)
			)
		)
		(property "Datasheet" "~"
			(at 78.74 36.83 0)
			(effects
				(font
					(size 1.27 1.27)
				)
				(hide yes)
			)
		)
		(property "Description" ""
			(at 78.74 36.83 0)
			(effects
				(font
					(size 1.27 1.27)
				)
				(hide yes)
			)
		)
		(pin "1"
			(uuid "35e1648c-791c-4d14-b79b-1853d1b89416")
		)
		(pin "2"
			(uuid "cb4e1fb8-cf41-43f1-8db1-4e64786b422a")
		)
		(instances
			(project ""
				(path "/2885994b-2fd3-4618-a25f-f1974be1c28f"
					(reference "J2")
					(unit 1)
				)
			)
		)
	)
	(symbol
		(lib_id "JKHA-rescue:GNDREF-power")
		(at 154.94 96.52 0)
		(unit 1)
		(exclude_from_sim no)
		(in_bom yes)
		(on_board yes)
		(dnp no)
		(uuid "00000000-0000-0000-0000-00005f81f8a5")
		(property "Reference" "#PWR?"
			(at 154.94 102.87 0)
			(effects
				(font
					(size 1.27 1.27)
				)
				(hide yes)
			)
		)
		(property "Value" "GNDREF"
			(at 155.067 100.9142 0)
			(effects
				(font
					(size 1.27 1.27)
				)
			)
		)
		(property "Footprint" ""
			(at 154.94 96.52 0)
			(effects
				(font
					(size 1.27 1.27)
				)
				(hide yes)
			)
		)
		(property "Datasheet" ""
			(at 154.94 96.52 0)
			(effects
				(font
					(size 1.27 1.27)
				)
				(hide yes)
			)
		)
		(property "Description" ""
			(at 154.94 96.52 0)
			(effects
				(font
					(size 1.27 1.27)
				)
				(hide yes)
			)
		)
		(pin "1"
			(uuid "b8a0976b-3c24-4639-aa4f-d81679295958")
		)
		(instances
			(project ""
				(path "/2885994b-2fd3-4618-a25f-f1974be1c28f"
					(reference "#PWR04")
					(unit 1)
				)
			)
		)
	)
	(sheet_instances
		(path "/"
			(page "1")
		)
	)
)
