EESchema Schematic File Version 4
EELAYER 30 0
EELAYER END
$Descr A4 11693 8268
encoding utf-8
Sheet 1 1
Title ""
Date ""
Rev ""
Comp ""
Comment1 ""
Comment2 ""
Comment3 ""
Comment4 ""
$EndDescr
$Comp
L pspice:VSOURCE V1
U 1 1 5F465B62
P 5000 2900
F 0 "V1" H 5228 2946 50  0000 L CNN
F 1 "AC 1" H 5228 2855 50  0000 L CNN
F 2 "" H 5000 2900 50  0001 C CNN
F 3 "~" H 5000 2900 50  0001 C CNN
	1    5000 2900
	1    0    0    -1  
$EndComp
Wire Wire Line
	5000 2600 5000 2550
$Comp
L pspice:0 #GND01
U 1 1 5F49313C
P 5000 4950
F 0 "#GND01" H 5000 4850 50  0001 C CNN
F 1 "0" H 5100 4950 50  0000 C CNN
F 2 "" H 5000 4950 50  0001 C CNN
F 3 "~" H 5000 4950 50  0001 C CNN
	1    5000 4950
	1    0    0    -1  
$EndComp
Text GLabel 4400 2550 0    50   Input ~ 0
VIN
Wire Wire Line
	4400 2550 5000 2550
Text GLabel 7250 2150 2    50   Input ~ 0
VOUT
Wire Wire Line
	5000 3200 5000 4800
$Comp
L Device:C C2
U 1 1 5F43201E
P 6000 3400
F 0 "C2" H 5885 3354 50  0000 R CNN
F 1 "10n" H 5885 3445 50  0000 R CNN
F 2 "" H 6038 3250 50  0001 C CNN
F 3 "~" H 6000 3400 50  0001 C CNN
	1    6000 3400
	-1   0    0    1   
$EndComp
$Comp
L Device:C C3
U 1 1 5F433B88
P 6000 4000
F 0 "C3" H 5885 3954 50  0000 R CNN
F 1 "100n" H 5885 4045 50  0000 R CNN
F 2 "" H 6038 3850 50  0001 C CNN
F 3 "~" H 6000 4000 50  0001 C CNN
	1    6000 4000
	-1   0    0    1   
$EndComp
$Comp
L Device:R R1
U 1 1 5F431D5C
P 5750 2850
F 0 "R1" H 5680 2804 50  0000 R CNN
F 1 "10k" H 5680 2895 50  0000 R CNN
F 2 "" V 5680 2850 50  0001 C CNN
F 3 "~" H 5750 2850 50  0001 C CNN
	1    5750 2850
	-1   0    0    1   
$EndComp
Connection ~ 5000 2550
Wire Wire Line
	6000 3050 6000 3250
Wire Wire Line
	5550 4250 5800 4250
Wire Wire Line
	6000 3550 6000 3700
Wire Wire Line
	6000 3700 6000 3850
Connection ~ 6000 3700
$Comp
L Device:R R4
U 1 1 5F4426EB
P 6350 3700
F 0 "R4" V 6143 3700 50  0000 C CNN
F 1 "10k" V 6234 3700 50  0000 C CNN
F 2 "" V 6280 3700 50  0001 C CNN
F 3 "~" H 6350 3700 50  0001 C CNN
	1    6350 3700
	0    1    1    0   
$EndComp
$Comp
L Device:R R7
U 1 1 5F442B75
P 5800 4500
F 0 "R7" H 5730 4454 50  0000 R CNN
F 1 "10k" H 5730 4545 50  0000 R CNN
F 2 "" V 5730 4500 50  0001 C CNN
F 3 "~" H 5800 4500 50  0001 C CNN
	1    5800 4500
	-1   0    0    1   
$EndComp
Wire Wire Line
	6200 3700 6000 3700
Wire Wire Line
	5800 4350 5800 4250
$Comp
L Device:C C1
U 1 1 5F447332
P 6800 2850
F 0 "C1" H 6685 2804 50  0000 R CNN
F 1 "1n" H 6685 2895 50  0000 R CNN
F 2 "" H 6838 2700 50  0001 C CNN
F 3 "~" H 6800 2850 50  0001 C CNN
	1    6800 2850
	-1   0    0    1   
$EndComp
$Comp
L Device:C C4
U 1 1 5F4479CC
P 6800 4400
F 0 "C4" H 6685 4354 50  0000 R CNN
F 1 "10n" H 6685 4445 50  0000 R CNN
F 2 "" H 6838 4250 50  0001 C CNN
F 3 "~" H 6800 4400 50  0001 C CNN
	1    6800 4400
	-1   0    0    1   
$EndComp
Wire Wire Line
	6500 3700 6550 3700
Wire Wire Line
	7250 2150 6550 2150
Wire Wire Line
	6550 2150 6550 3700
Connection ~ 6550 3700
Wire Wire Line
	5800 4650 5800 4800
Wire Wire Line
	5800 4800 5000 4800
Connection ~ 5000 4800
Wire Wire Line
	5000 4800 5000 4950
Wire Wire Line
	6800 4800 5800 4800
Connection ~ 5800 4800
$Comp
L Device:R R2
U 1 1 5F46B02C
P 6800 3400
F 0 "R2" H 6730 3354 50  0000 R CNN
F 1 "0" H 6730 3445 50  0000 R CNN
F 2 "" V 6730 3400 50  0001 C CNN
F 3 "~" H 6800 3400 50  0001 C CNN
	1    6800 3400
	-1   0    0    1   
$EndComp
$Comp
L Device:R R5
U 1 1 5F46B765
P 5550 4000
F 0 "R5" H 5480 3954 50  0000 R CNN
F 1 "12.5k" H 5480 4045 50  0000 R CNN
F 2 "" V 5480 4000 50  0001 C CNN
F 3 "~" H 5550 4000 50  0001 C CNN
	1    5550 4000
	-1   0    0    1   
$EndComp
$Comp
L Device:R R6
U 1 1 5F46FA7F
P 6800 4000
F 0 "R6" H 6730 3954 50  0000 R CNN
F 1 "50k" H 6730 4045 50  0000 R CNN
F 2 "" V 6730 4000 50  0001 C CNN
F 3 "~" H 6800 4000 50  0001 C CNN
	1    6800 4000
	-1   0    0    1   
$EndComp
$Comp
L Device:R R3
U 1 1 5F46FFC7
P 5550 3400
F 0 "R3" H 5480 3354 50  0000 R CNN
F 1 "1" H 5480 3445 50  0000 R CNN
F 2 "" V 5480 3400 50  0001 C CNN
F 3 "~" H 5550 3400 50  0001 C CNN
	1    5550 3400
	-1   0    0    1   
$EndComp
Wire Wire Line
	5550 3250 5550 3050
Wire Wire Line
	5550 3050 5750 3050
Wire Wire Line
	5550 3550 5550 3700
Wire Wire Line
	5550 3700 6000 3700
Connection ~ 5550 3700
Wire Wire Line
	5550 3700 5550 3850
Wire Wire Line
	5550 4150 5550 4250
Wire Wire Line
	6800 4250 6800 4150
Wire Wire Line
	6800 3850 6800 3700
Wire Wire Line
	6550 3700 6800 3700
Connection ~ 6800 3700
Wire Wire Line
	6800 3700 6800 3550
Wire Wire Line
	6800 3250 6800 3000
Wire Wire Line
	6800 2550 5750 2550
Wire Wire Line
	6800 2550 6800 2700
Wire Wire Line
	5750 3000 5750 3050
Connection ~ 5750 3050
Wire Wire Line
	5750 3050 6000 3050
Wire Wire Line
	5750 2550 5750 2700
Wire Wire Line
	5000 2550 5750 2550
Connection ~ 5750 2550
Connection ~ 5800 4250
Wire Wire Line
	6000 4150 6000 4250
Wire Wire Line
	5800 4250 6000 4250
Wire Wire Line
	6800 4550 6800 4800
$EndSCHEMATC
