EESchema Schematic File Version 4
EELAYER 30 0
EELAYER END
$Descr A4 11693 8268
encoding utf-8
Sheet 1 1
Title ""
Date ""
Rev ""
Comp ""
Comment1 ""
Comment2 ""
Comment3 ""
Comment4 ""
$EndDescr
Text GLabel 3150 2950 0    50   Input ~ 0
Vin
Text GLabel 7050 2800 0    50   Output ~ 0
Vout
$Comp
L pspice:0 #GND03
U 1 1 5F5426A0
P 3650 5050
F 0 "#GND03" H 3650 4950 50  0001 C CNN
F 1 "0" H 3750 5050 50  0000 C CNN
F 2 "" H 3650 5050 50  0001 C CNN
F 3 "~" H 3650 5050 50  0001 C CNN
	1    3650 5050
	1    0    0    -1  
$EndComp
$Comp
L pspice:VSOURCE V3
U 1 1 5F542C96
P 3650 3950
F 0 "V3" H 3878 3996 50  0000 L CNN
F 1 "dc 0 ac 1" H 3878 3905 50  0000 L CNN
F 2 "" H 3650 3950 50  0001 C CNN
F 3 "~" H 3650 3950 50  0001 C CNN
	1    3650 3950
	1    0    0    -1  
$EndComp
Wire Wire Line
	3650 3650 3650 2950
Wire Wire Line
	3650 2950 3150 2950
Wire Wire Line
	3650 5050 3650 4900
Wire Wire Line
	3650 2950 3650 2700
Wire Wire Line
	3650 2700 4100 2700
Connection ~ 3650 2950
$Comp
L pspice:R R3
U 1 1 5F548715
P 6150 4550
F 0 "R3" H 6218 4596 50  0000 L CNN
F 1 "1k" H 6218 4505 50  0000 L CNN
F 2 "" H 6150 4550 50  0001 C CNN
F 3 "~" H 6150 4550 50  0001 C CNN
	1    6150 4550
	1    0    0    -1  
$EndComp
Wire Wire Line
	6150 4800 6150 4900
Wire Wire Line
	6150 4900 4550 4900
Connection ~ 3650 4900
Wire Wire Line
	3650 4900 3650 4250
$Comp
L Device:C C1
U 1 1 5F548FC5
P 4250 2700
F 0 "C1" V 3998 2700 50  0000 C CNN
F 1 "1u" V 4089 2700 50  0000 C CNN
F 2 "" H 4288 2550 50  0001 C CNN
F 3 "~" H 4250 2700 50  0001 C CNN
	1    4250 2700
	0    1    1    0   
$EndComp
Wire Wire Line
	4400 2700 4550 2700
$Comp
L pspice:R R2
U 1 1 5F54B69B
P 4550 3700
F 0 "R2" H 4618 3746 50  0000 L CNN
F 1 "100k" H 4618 3655 50  0000 L CNN
F 2 "" H 4550 3700 50  0001 C CNN
F 3 "~" H 4550 3700 50  0001 C CNN
	1    4550 3700
	1    0    0    -1  
$EndComp
Wire Wire Line
	4550 2700 4550 3450
Wire Wire Line
	4550 3950 4550 4900
Connection ~ 4550 2700
Wire Wire Line
	4550 2700 5150 2700
Connection ~ 4550 4900
Wire Wire Line
	4550 4900 3650 4900
Wire Wire Line
	5150 2900 4950 2900
Wire Wire Line
	4950 2900 4950 4150
Wire Wire Line
	4950 4150 6150 4150
Wire Wire Line
	6150 4150 6150 4300
$Comp
L pspice:R R1
U 1 1 5F54DEF3
P 6150 3550
F 0 "R1" H 6218 3596 50  0000 L CNN
F 1 "4.7k" H 6218 3505 50  0000 L CNN
F 2 "" H 6150 3550 50  0001 C CNN
F 3 "~" H 6150 3550 50  0001 C CNN
	1    6150 3550
	1    0    0    -1  
$EndComp
Wire Wire Line
	6150 3300 6150 2800
Wire Wire Line
	6150 2800 5750 2800
Wire Wire Line
	6150 3800 6150 4150
Connection ~ 6150 4150
Wire Wire Line
	7050 2800 6150 2800
Connection ~ 6150 2800
Wire Wire Line
	5350 2500 5350 1550
Wire Wire Line
	5350 1550 4950 1550
$Comp
L pspice:0 #GND01
U 1 1 5F5445CE
P 4950 2400
F 0 "#GND01" H 4950 2300 50  0001 C CNN
F 1 "0" H 5050 2400 50  0000 C CNN
F 2 "" H 4950 2400 50  0001 C CNN
F 3 "~" H 4950 2400 50  0001 C CNN
	1    4950 2400
	1    0    0    -1  
$EndComp
$Comp
L pspice:0 #GND02
U 1 1 5F54542D
P 5350 4050
F 0 "#GND02" H 5350 3950 50  0001 C CNN
F 1 "0" H 5450 4050 50  0000 C CNN
F 2 "" H 5350 4050 50  0001 C CNN
F 3 "~" H 5350 4050 50  0001 C CNN
	1    5350 4050
	1    0    0    -1  
$EndComp
Wire Wire Line
	4950 1550 4950 1650
Wire Wire Line
	5350 3100 5350 3300
$Comp
L pspice:VSOURCE V1
U 1 1 5F543736
P 4950 1950
F 0 "V1" H 5178 1996 50  0000 L CNN
F 1 "15" H 5178 1905 50  0000 L CNN
F 2 "" H 4950 1950 50  0001 C CNN
F 3 "~" H 4950 1950 50  0001 C CNN
	1    4950 1950
	1    0    0    -1  
$EndComp
Wire Wire Line
	4950 2250 4950 2400
$Comp
L pspice:VSOURCE V2
U 1 1 5F543F99
P 5350 3600
F 0 "V2" H 5578 3646 50  0000 L CNN
F 1 "-15" H 5578 3555 50  0000 L CNN
F 2 "" H 5350 3600 50  0001 C CNN
F 3 "~" H 5350 3600 50  0001 C CNN
	1    5350 3600
	1    0    0    -1  
$EndComp
Wire Wire Line
	5350 3900 5350 4050
$Comp
L Simulation_SPICE:OPAMP U1
U 1 1 5F54E258
P 5450 2800
F 0 "U1" H 5794 2846 50  0000 L CNN
F 1 "OPAMP" H 5794 2755 50  0000 L CNN
F 2 "" H 5450 2800 50  0001 C CNN
F 3 "~" H 5450 2800 50  0001 C CNN
F 4 "Y" H 5450 2800 50  0001 L CNN "Spice_Netlist_Enabled"
F 5 "X" H 5450 2800 50  0001 L CNN "Spice_Primitive"
F 6 "OPAMP" H 5450 2800 50  0001 C CNN "Spice_Model"
F 7 "lm358.mod" H 5450 2800 50  0001 C CNN "Spice_Lib_File"
	1    5450 2800
	1    0    0    -1  
$EndComp
$EndSCHEMATC
