EESchema Schematic File Version 4
EELAYER 30 0
EELAYER END
$Descr A4 11693 8268
encoding utf-8
Sheet 1 1
Title ""
Date ""
Rev ""
Comp ""
Comment1 ""
Comment2 ""
Comment3 ""
Comment4 ""
$EndDescr
Text GLabel 5450 2750 0    50   Input ~ 0
Vin
Text GLabel 8050 2750 0    50   Output ~ 0
Vout
$Comp
L pspice:VSOURCE V1
U 1 1 5F542457
P 5600 3650
F 0 "V1" H 5828 3696 50  0000 L CNN
F 1 "AC 1" H 5828 3605 50  0000 L CNN
F 2 "" H 5600 3650 50  0001 C CNN
F 3 "~" H 5600 3650 50  0001 C CNN
	1    5600 3650
	1    0    0    -1  
$EndComp
Wire Wire Line
	5600 3350 5600 2750
Wire Wire Line
	5600 2750 5450 2750
$Comp
L pspice:0 #GND01
U 1 1 5F542F7B
P 5600 4650
F 0 "#GND01" H 5600 4550 50  0001 C CNN
F 1 "0" H 5700 4650 50  0000 C CNN
F 2 "" H 5600 4650 50  0001 C CNN
F 3 "~" H 5600 4650 50  0001 C CNN
	1    5600 4650
	1    0    0    -1  
$EndComp
Wire Wire Line
	5600 4650 5600 4450
$Comp
L Device:R_US R3
U 1 1 5F544206
P 6700 3850
F 0 "R3" H 6768 3896 50  0000 L CNN
F 1 "50k" H 6768 3805 50  0000 L CNN
F 2 "" V 6740 3840 50  0001 C CNN
F 3 "~" H 6700 3850 50  0001 C CNN
	1    6700 3850
	1    0    0    -1  
$EndComp
$Comp
L Device:C C2
U 1 1 5F544C2F
P 6700 3250
F 0 "C2" H 6815 3296 50  0000 L CNN
F 1 "1u" H 6815 3205 50  0000 L CNN
F 2 "" H 6738 3100 50  0001 C CNN
F 3 "~" H 6700 3250 50  0001 C CNN
	1    6700 3250
	1    0    0    -1  
$EndComp
Connection ~ 5600 4450
Wire Wire Line
	5600 4450 5600 3950
Connection ~ 5600 2750
Wire Wire Line
	6700 3100 6700 2750
Connection ~ 6700 2750
Wire Wire Line
	6700 2750 8050 2750
$Comp
L Device:R_US R1
U 1 1 5F548563
P 6100 2750
F 0 "R1" V 5895 2750 50  0000 C CNN
F 1 "1k" V 5986 2750 50  0000 C CNN
F 2 "" V 6140 2740 50  0001 C CNN
F 3 "~" H 6100 2750 50  0001 C CNN
	1    6100 2750
	0    1    1    0   
$EndComp
Wire Wire Line
	6250 2750 6700 2750
Wire Wire Line
	5600 2750 5950 2750
Wire Wire Line
	5600 4450 6700 4450
Wire Wire Line
	6700 3400 6700 3700
Wire Wire Line
	6700 4000 6700 4450
$EndSCHEMATC
